data/interim/1_Hz/CNT_0,5/pre_05_1hz__5s_2/Cen/Cen_4.CSV

Record Length,2.500000e+03,,   0.000000000000,  -0.07600,
Sample Interval,2.000000e-02,,   0.020000000000,  -0.07800,
Trigger Point,0.000000000000e+00,,   0.040000000000,  -0.08000,
,,,   0.060000000000,  -0.08000,
,,,   0.080000000000,   0.01600,
,,,   0.100000000000,   0.02200,
Source,CH2,,   0.120000000000,   0.02400,
Vertical Units,V,,   0.140000000000,   0.02800,
Vertical Scale,5.000000e-02,,   0.160000000000,   0.02800,
Vertical Offset,-7.600000e-02,,   0.180000000000,   0.03200,
Horizontal Units,s,,   0.200000000000,   0.03400,
Horizontal Scale,5.000000e+00,,   0.220000000000,   0.03400,
Pt Fmt,Y,,   0.240000000000,   0.03400,
Yzero,0.000000e+00,,   0.260000000000,   0.03800,
Probe Atten,1.000000e+00,,   0.280000000000,   0.03800,
Model Number,TDS1012C-EDU,,   0.300000000000,   0.03800,
Serial Number,C010951,,   0.320000000000,   0.04000,
Firmware Version,FV:v25.04,,   0.340000000000,   0.04400,
,,,0.360000000000,   0.04200,
,,,0.380000000000,   0.04200,
,,,0.400000000000,   0.04400,
,,,0.420000000000,   0.04400,
,,,0.440000000000,   0.04400,
,,,0.460000000000,   0.04800,
,,,0.480000000000,   0.04800,
,,,0.500000000000,   0.04800,
,,,0.520000000000,   0.04800,
,,,0.540000000000,   0.05000,
,,,0.560000000000,  -0.03000,
,,,0.580000000000,  -0.04800,
,,,0.600000000000,  -0.05400,
,,,0.620000000000,  -0.05600,
,,,0.640000000000,  -0.05800,
,,,0.660000000000,  -0.06000,
,,,0.680000000000,  -0.06200,
,,,0.700000000000,  -0.06200,
,,,0.720000000000,  -0.06400,
,,,0.740000000000,  -0.06200,
,,,0.760000000000,  -0.06800,
,,,0.780000000000,  -0.06800,
,,,0.800000000000,  -0.06800,
,,,0.820000000000,  -0.07000,
,,,0.840000000000,  -0.07000,
,,,0.860000000000,  -0.07000,
,,,0.880000000000,  -0.07000,
,,,0.900000000000,  -0.07400,
,,,0.920000000000,  -0.07600,
,,,0.940000000000,  -0.07400,
,,,0.960000000000,  -0.07400,
,,,0.980000000000,  -0.07600,
,,,1.000000000000,  -0.07600,
,,,1.020000000000,  -0.07800,
,,,1.040000000000,  -0.07800,
,,,1.060000000000,   0.00400,
,,,1.080000000000,   0.01600,
,,,1.100000000000,   0.02200,
,,,1.120000000000,   0.02200,
,,,1.140000000000,   0.02800,
,,,1.160000000000,   0.03000,
,,,1.180000000000,   0.03200,
,,,1.200000000000,   0.03200,
,,,1.220000000000,   0.03400,
,,,1.240000000000,   0.03400,
,,,1.260000000000,   0.03800,
,,,1.280000000000,   0.03800,
,,,1.300000000000,   0.03800,
,,,1.320000000000,   0.04000,
,,,1.340000000000,   0.04000,
,,,1.360000000000,   0.04200,
,,,1.380000000000,   0.04400,
,,,1.400000000000,   0.04400,
,,,1.420000000000,   0.04200,
,,,1.440000000000,   0.04600,
,,,1.460000000000,   0.04800,
,,,1.480000000000,   0.04800,
,,,1.500000000000,   0.04800,
,,,1.520000000000,   0.05000,
,,,1.540000000000,   0.05000,
,,,1.560000000000,  -0.03600,
,,,1.580000000000,  -0.04800,
,,,1.600000000000,  -0.05200,
,,,1.620000000000,  -0.05600,
,,,1.640000000000,  -0.05600,
,,,1.660000000000,  -0.05800,
,,,1.680000000000,  -0.06200,
,,,1.700000000000,  -0.06200,
,,,1.720000000000,  -0.06400,
,,,1.740000000000,  -0.06400,
,,,1.760000000000,  -0.06600,
,,,1.780000000000,  -0.06600,
,,,1.800000000000,  -0.06800,
,,,1.820000000000,  -0.07000,
,,,1.840000000000,  -0.07000,
,,,1.860000000000,  -0.07200,
,,,1.880000000000,  -0.07200,
,,,1.900000000000,  -0.07400,
,,,1.920000000000,  -0.07400,
,,,1.940000000000,  -0.07400,
,,,1.960000000000,  -0.07400,
,,,1.980000000000,  -0.07600,
,,,2.000000000000,  -0.07600,
,,,2.020000000000,  -0.07800,
,,,2.040000000000,  -0.07800,
,,,2.060000000000,   0.00800,
,,,2.080000000000,   0.01600,
,,,2.100000000000,   0.02200,
,,,2.120000000000,   0.02600,
,,,2.140000000000,   0.02800,
,,,2.160000000000,   0.03000,
,,,2.180000000000,   0.03400,
,,,2.200000000000,   0.03400,
,,,2.220000000000,   0.03200,
,,,2.240000000000,   0.03400,
,,,2.260000000000,   0.03600,
,,,2.280000000000,   0.04000,
,,,2.300000000000,   0.03600,
,,,2.320000000000,   0.03800,
,,,2.340000000000,   0.04200,
,,,2.360000000000,   0.04200,
,,,2.380000000000,   0.04400,
,,,2.400000000000,   0.04600,
,,,2.420000000000,   0.04600,
,,,2.440000000000,   0.04600,
,,,2.460000000000,   0.04600,
,,,2.480000000000,   0.04600,
,,,2.500000000000,   0.04800,
,,,2.520000000000,   0.04800,
,,,2.540000000000,   0.04800,
,,,2.560000000000,  -0.04000,
,,,2.580000000000,  -0.05000,
,,,2.600000000000,  -0.05600,
,,,2.620000000000,  -0.05400,
,,,2.640000000000,  -0.05800,
,,,2.660000000000,  -0.06000,
,,,2.680000000000,  -0.06200,
,,,2.700000000000,  -0.06400,
,,,2.720000000000,  -0.06400,
,,,2.740000000000,  -0.06600,
,,,2.760000000000,  -0.06600,
,,,2.780000000000,  -0.06800,
,,,2.800000000000,  -0.07000,
,,,2.820000000000,  -0.07000,
,,,2.840000000000,  -0.07000,
,,,2.860000000000,  -0.07400,
,,,2.880000000000,  -0.07200,
,,,2.900000000000,  -0.07400,
,,,2.920000000000,  -0.07600,
,,,2.940000000000,  -0.07600,
,,,2.960000000000,  -0.07400,
,,,2.980000000000,  -0.07600,
,,,3.000000000000,  -0.07800,
,,,3.020000000000,  -0.07600,
,,,3.040000000000,  -0.07800,
,,,3.060000000000,   0.00800,
,,,3.080000000000,   0.01600,
,,,3.100000000000,   0.02200,
,,,3.120000000000,   0.02600,
,,,3.140000000000,   0.02800,
,,,3.160000000000,   0.03000,
,,,3.180000000000,   0.03000,
,,,3.200000000000,   0.03400,
,,,3.220000000000,   0.03200,
,,,3.240000000000,   0.03600,
,,,3.260000000000,   0.03600,
,,,3.280000000000,   0.04000,
,,,3.300000000000,   0.03800,
,,,3.320000000000,   0.04000,
,,,3.340000000000,   0.04000,
,,,3.360000000000,   0.04400,
,,,3.380000000000,   0.04600,
,,,3.400000000000,   0.04400,
,,,3.420000000000,   0.04400,
,,,3.440000000000,   0.04600,
,,,3.460000000000,   0.04600,
,,,3.480000000000,   0.04800,
,,,3.500000000000,   0.04800,
,,,3.520000000000,   0.04800,
,,,3.540000000000,   0.05000,
,,,3.560000000000,  -0.04000,
,,,3.580000000000,  -0.05000,
,,,3.600000000000,  -0.05600,
,,,3.620000000000,  -0.05600,
,,,3.640000000000,  -0.05800,
,,,3.660000000000,  -0.06000,
,,,3.680000000000,  -0.06200,
,,,3.700000000000,  -0.06200,
,,,3.720000000000,  -0.06600,
,,,3.740000000000,  -0.06800,
,,,3.760000000000,  -0.06600,
,,,3.780000000000,  -0.06400,
,,,3.800000000000,  -0.07000,
,,,3.820000000000,  -0.07000,
,,,3.840000000000,  -0.07200,
,,,3.860000000000,  -0.07200,
,,,3.880000000000,  -0.07200,
,,,3.900000000000,  -0.07400,
,,,3.920000000000,  -0.07400,
,,,3.940000000000,  -0.07400,
,,,3.960000000000,  -0.07400,
,,,3.980000000000,  -0.07400,
,,,4.000000000000,  -0.07800,
,,,4.020000000000,  -0.08000,
,,,4.040000000000,  -0.08000,
,,,4.060000000000,   0.01200,
,,,4.080000000000,   0.02000,
,,,4.100000000000,   0.02200,
,,,4.120000000000,   0.02400,
,,,4.140000000000,   0.02800,
,,,4.160000000000,   0.02800,
,,,4.180000000000,   0.03200,
,,,4.200000000000,   0.03400,
,,,4.220000000000,   0.03400,
,,,4.240000000000,   0.03600,
,,,4.260000000000,   0.03800,
,,,4.280000000000,   0.04000,
,,,4.300000000000,   0.04000,
,,,4.320000000000,   0.04000,
,,,4.340000000000,   0.04000,
,,,4.360000000000,   0.04400,
,,,4.380000000000,   0.04400,
,,,4.400000000000,   0.04600,
,,,4.420000000000,   0.04600,
,,,4.440000000000,   0.04600,
,,,4.460000000000,   0.04600,
,,,4.480000000000,   0.04800,
,,,4.500000000000,   0.04800,
,,,4.520000000000,   0.04800,
,,,4.540000000000,   0.05000,
,,,4.560000000000,  -0.04200,
,,,4.580000000000,  -0.05000,
,,,4.600000000000,  -0.05200,
,,,4.620000000000,  -0.05600,
,,,4.640000000000,  -0.05800,
,,,4.660000000000,  -0.05800,
,,,4.680000000000,  -0.06000,
,,,4.700000000000,  -0.06200,
,,,4.720000000000,  -0.06400,
,,,4.740000000000,  -0.06600,
,,,4.760000000000,  -0.06800,
,,,4.780000000000,  -0.06800,
,,,4.800000000000,  -0.07000,
,,,4.820000000000,  -0.06600,
,,,4.840000000000,  -0.07200,
,,,4.860000000000,  -0.07200,
,,,4.880000000000,  -0.07400,
,,,4.900000000000,  -0.07400,
,,,4.920000000000,  -0.07400,
,,,4.940000000000,  -0.07600,
,,,4.960000000000,  -0.07600,
,,,4.980000000000,  -0.07600,
,,,5.000000000000,  -0.08000,
,,,5.020000000000,  -0.07800,
,,,5.040000000000,  -0.07800,
,,,5.060000000000,   0.01200,
,,,5.080000000000,   0.01800,
,,,5.100000000000,   0.02200,
,,,5.120000000000,   0.02600,
,,,5.140000000000,   0.02800,
,,,5.160000000000,   0.02800,
,,,5.180000000000,   0.03200,
,,,5.200000000000,   0.03200,
,,,5.220000000000,   0.03400,
,,,5.240000000000,   0.03600,
,,,5.260000000000,   0.03800,
,,,5.280000000000,   0.04000,
,,,5.300000000000,   0.03800,
,,,5.320000000000,   0.04200,
,,,5.340000000000,   0.04200,
,,,5.360000000000,   0.04200,
,,,5.380000000000,   0.04400,
,,,5.400000000000,   0.04400,
,,,5.420000000000,   0.04600,
,,,5.440000000000,   0.04600,
,,,5.460000000000,   0.04800,
,,,5.480000000000,   0.04800,
,,,5.500000000000,   0.04800,
,,,5.520000000000,   0.05200,
,,,5.540000000000,   0.04800,
,,,5.560000000000,  -0.04200,
,,,5.580000000000,  -0.05000,
,,,5.600000000000,  -0.05200,
,,,5.620000000000,  -0.06000,
,,,5.640000000000,  -0.05800,
,,,5.660000000000,  -0.06000,
,,,5.680000000000,  -0.06200,
,,,5.700000000000,  -0.06200,
,,,5.720000000000,  -0.06600,
,,,5.740000000000,  -0.06600,
,,,5.760000000000,  -0.06600,
,,,5.780000000000,  -0.06800,
,,,5.800000000000,  -0.07000,
,,,5.820000000000,  -0.07000,
,,,5.840000000000,  -0.07200,
,,,5.860000000000,  -0.07000,
,,,5.880000000000,  -0.07400,
,,,5.900000000000,  -0.07400,
,,,5.920000000000,  -0.07400,
,,,5.940000000000,  -0.07600,
,,,5.960000000000,  -0.07600,
,,,5.980000000000,  -0.07800,
,,,6.000000000000,  -0.07600,
,,,6.020000000000,  -0.07800,
,,,6.040000000000,  -0.08000,
,,,6.060000000000,   0.01600,
,,,6.080000000000,   0.02200,
,,,6.100000000000,   0.02400,
,,,6.120000000000,   0.02600,
,,,6.140000000000,   0.03000,
,,,6.160000000000,   0.03000,
,,,6.180000000000,   0.03200,
,,,6.200000000000,   0.03400,
,,,6.220000000000,   0.03600,
,,,6.240000000000,   0.03400,
,,,6.260000000000,   0.03600,
,,,6.280000000000,   0.03800,
,,,6.300000000000,   0.04000,
,,,6.320000000000,   0.04000,
,,,6.340000000000,   0.04400,
,,,6.360000000000,   0.04400,
,,,6.380000000000,   0.04400,
,,,6.400000000000,   0.04400,
,,,6.420000000000,   0.04600,
,,,6.440000000000,   0.04800,
,,,6.460000000000,   0.04800,
,,,6.480000000000,   0.04800,
,,,6.500000000000,   0.04800,
,,,6.520000000000,   0.04800,
,,,6.540000000000,   0.05000,
,,,6.560000000000,  -0.04400,
,,,6.580000000000,  -0.05000,
,,,6.600000000000,  -0.05600,
,,,6.620000000000,  -0.05600,
,,,6.640000000000,  -0.05800,
,,,6.660000000000,  -0.06000,
,,,6.680000000000,  -0.06200,
,,,6.700000000000,  -0.06400,
,,,6.720000000000,  -0.06600,
,,,6.740000000000,  -0.06600,
,,,6.760000000000,  -0.06800,
,,,6.780000000000,  -0.06600,
,,,6.800000000000,  -0.06800,
,,,6.820000000000,  -0.07000,
,,,6.840000000000,  -0.07200,
,,,6.860000000000,  -0.07200,
,,,6.880000000000,  -0.07400,
,,,6.900000000000,  -0.07400,
,,,6.920000000000,  -0.07600,
,,,6.940000000000,  -0.07400,
,,,6.960000000000,  -0.07600,
,,,6.980000000000,  -0.07400,
,,,7.000000000000,  -0.07800,
,,,7.020000000000,  -0.07800,
,,,7.040000000000,  -0.08000,
,,,7.060000000000,   0.01600,
,,,7.080000000000,   0.02000,
,,,7.100000000000,   0.02400,
,,,7.120000000000,   0.02600,
,,,7.140000000000,   0.02800,
,,,7.160000000000,   0.03200,
,,,7.180000000000,   0.03200,
,,,7.200000000000,   0.03400,
,,,7.220000000000,   0.03400,
,,,7.240000000000,   0.03800,
,,,7.260000000000,   0.04000,
,,,7.280000000000,   0.03800,
,,,7.300000000000,   0.04000,
,,,7.320000000000,   0.04000,
,,,7.340000000000,   0.04000,
,,,7.360000000000,   0.04200,
,,,7.380000000000,   0.04400,
,,,7.400000000000,   0.04600,
,,,7.420000000000,   0.04600,
,,,7.440000000000,   0.04600,
,,,7.460000000000,   0.04800,
,,,7.480000000000,   0.05000,
,,,7.500000000000,   0.04800,
,,,7.520000000000,   0.04800,
,,,7.540000000000,   0.05000,
,,,7.560000000000,  -0.04600,
,,,7.580000000000,  -0.05000,
,,,7.600000000000,  -0.05400,
,,,7.620000000000,  -0.05800,
,,,7.640000000000,  -0.06000,
,,,7.660000000000,  -0.05800,
,,,7.680000000000,  -0.06200,
,,,7.700000000000,  -0.06400,
,,,7.720000000000,  -0.06400,
,,,7.740000000000,  -0.06400,
,,,7.760000000000,  -0.06800,
,,,7.780000000000,  -0.06800,
,,,7.800000000000,  -0.06800,
,,,7.820000000000,  -0.07000,
,,,7.840000000000,  -0.07000,
,,,7.860000000000,  -0.07200,
,,,7.880000000000,  -0.07400,
,,,7.900000000000,  -0.07200,
,,,7.920000000000,  -0.07600,
,,,7.940000000000,  -0.07400,
,,,7.960000000000,  -0.07600,
,,,7.980000000000,  -0.07600,
,,,8.000000000000,  -0.07800,
,,,8.020000000000,  -0.07800,
,,,8.040000000000,  -0.08000,
,,,8.060000000000,   0.01600,
,,,8.080000000000,   0.02000,
,,,8.100000000000,   0.02600,
,,,8.120000000000,   0.02800,
,,,8.140000000000,   0.03000,
,,,8.160000000000,   0.03200,
,,,8.180000000000,   0.03200,
,,,8.200000000000,   0.03400,
,,,8.220000000000,   0.03600,
,,,8.240000000000,   0.03600,
,,,8.260000000000,   0.04000,
,,,8.280000000000,   0.04000,
,,,8.300000000000,   0.04000,
,,,8.320000000000,   0.04200,
,,,8.340000000000,   0.04400,
,,,8.360000000000,   0.04600,
,,,8.380000000000,   0.04400,
,,,8.400000000000,   0.04400,
,,,8.420000000000,   0.04600,
,,,8.440000000000,   0.04800,
,,,8.460000000000,   0.04600,
,,,8.480000000000,   0.04800,
,,,8.500000000000,   0.05000,
,,,8.520000000000,   0.04800,
,,,8.540000000000,  -0.03000,
,,,8.560000000000,  -0.04800,
,,,8.580000000000,  -0.05200,
,,,8.600000000000,  -0.05600,
,,,8.620000000000,  -0.05800,
,,,8.640000000000,  -0.06000,
,,,8.660000000000,  -0.06000,
,,,8.680000000000,  -0.06200,
,,,8.700000000000,  -0.06400,
,,,8.720000000000,  -0.06400,
,,,8.740000000000,  -0.06400,
,,,8.760000000000,  -0.06800,
,,,8.780000000000,  -0.06600,
,,,8.800000000000,  -0.07000,
,,,8.820000000000,  -0.07000,
,,,8.840000000000,  -0.07000,
,,,8.860000000000,  -0.07200,
,,,8.880000000000,  -0.07200,
,,,8.900000000000,  -0.07400,
,,,8.920000000000,  -0.07400,
,,,8.940000000000,  -0.07800,
,,,8.960000000000,  -0.07600,
,,,8.980000000000,  -0.07800,
,,,9.000000000000,  -0.07600,
,,,9.020000000000,  -0.08000,
,,,9.040000000000,   0.00400,
,,,9.060000000000,   0.01600,
,,,9.080000000000,   0.02200,
,,,9.100000000000,   0.02400,
,,,9.120000000000,   0.02200,
,,,9.140000000000,   0.02800,
,,,9.160000000000,   0.03400,
,,,9.180000000000,   0.03400,
,,,9.200000000000,   0.03400,
,,,9.220000000000,   0.03600,
,,,9.240000000000,   0.03800,
,,,9.260000000000,   0.03800,
,,,9.280000000000,   0.03800,
,,,9.300000000000,   0.04000,
,,,9.320000000000,   0.04200,
,,,9.340000000000,   0.04200,
,,,9.360000000000,   0.04400,
,,,9.380000000000,   0.04200,
,,,9.400000000000,   0.04400,
,,,9.420000000000,   0.04600,
,,,9.440000000000,   0.04600,
,,,9.460000000000,   0.04800,
,,,9.480000000000,   0.05000,
,,,9.500000000000,   0.05000,
,,,9.520000000000,   0.04800,
,,,9.540000000000,  -0.03800,
,,,9.560000000000,  -0.04400,
,,,9.580000000000,  -0.05000,
,,,9.600000000000,  -0.05400,
,,,9.620000000000,  -0.05600,
,,,9.640000000000,  -0.05800,
,,,9.660000000000,  -0.06200,
,,,9.680000000000,  -0.06000,
,,,9.700000000000,  -0.06400,
,,,9.720000000000,  -0.06400,
,,,9.740000000000,  -0.06600,
,,,9.760000000000,  -0.06600,
,,,9.780000000000,  -0.06600,
,,,9.800000000000,  -0.07000,
,,,9.820000000000,  -0.07200,
,,,9.840000000000,  -0.07000,
,,,9.860000000000,  -0.07200,
,,,9.880000000000,  -0.07600,
,,,9.900000000000,  -0.07400,
,,,9.920000000000,  -0.07600,
,,,9.940000000000,  -0.07400,
,,,9.960000000000,  -0.07600,
,,,9.980000000000,  -0.07600,
,,,10.000000000000,  -0.07800,
,,,10.020000000000,  -0.08000,
,,,10.040000000000,   0.00600,
,,,10.060000000000,   0.02000,
,,,10.080000000000,   0.02200,
,,,10.100000000000,   0.02400,
,,,10.120000000000,   0.02800,
,,,10.140000000000,   0.02800,
,,,10.160000000000,   0.03200,
,,,10.180000000000,   0.03400,
,,,10.200000000000,   0.03400,
,,,10.220000000000,   0.03400,
,,,10.240000000000,   0.03600,
,,,10.260000000000,   0.03800,
,,,10.280000000000,   0.04000,
,,,10.300000000000,   0.04000,
,,,10.320000000000,   0.04200,
,,,10.340000000000,   0.04200,
,,,10.360000000000,   0.04400,
,,,10.380000000000,   0.04400,
,,,10.400000000000,   0.04600,
,,,10.420000000000,   0.04600,
,,,10.440000000000,   0.05000,
,,,10.460000000000,   0.04800,
,,,10.480000000000,   0.04800,
,,,10.500000000000,   0.05000,
,,,10.520000000000,   0.05000,
,,,10.540000000000,  -0.04000,
,,,10.560000000000,  -0.04400,
,,,10.580000000000,  -0.05200,
,,,10.600000000000,  -0.05600,
,,,10.620000000000,  -0.05600,
,,,10.640000000000,  -0.06000,
,,,10.660000000000,  -0.06000,
,,,10.680000000000,  -0.06000,
,,,10.700000000000,  -0.06400,
,,,10.720000000000,  -0.06600,
,,,10.740000000000,  -0.06600,
,,,10.760000000000,  -0.06600,
,,,10.780000000000,  -0.06600,
,,,10.800000000000,  -0.06800,
,,,10.820000000000,  -0.07200,
,,,10.840000000000,  -0.07200,
,,,10.860000000000,  -0.07000,
,,,10.880000000000,  -0.07200,
,,,10.900000000000,  -0.07200,
,,,10.920000000000,  -0.07400,
,,,10.940000000000,  -0.07400,
,,,10.960000000000,  -0.07400,
,,,10.980000000000,  -0.07800,
,,,11.000000000000,  -0.07600,
,,,11.020000000000,  -0.08000,
,,,11.040000000000,   0.01000,
,,,11.060000000000,   0.01800,
,,,11.080000000000,   0.02200,
,,,11.100000000000,   0.02400,
,,,11.120000000000,   0.02800,
,,,11.140000000000,   0.03000,
,,,11.160000000000,   0.03400,
,,,11.180000000000,   0.03200,
,,,11.200000000000,   0.03400,
,,,11.220000000000,   0.03400,
,,,11.240000000000,   0.03800,
,,,11.260000000000,   0.03800,
,,,11.280000000000,   0.04000,
,,,11.300000000000,   0.04000,
,,,11.320000000000,   0.04200,
,,,11.340000000000,   0.04400,
,,,11.360000000000,   0.04200,
,,,11.380000000000,   0.04400,
,,,11.400000000000,   0.04600,
,,,11.420000000000,   0.04600,
,,,11.440000000000,   0.04800,
,,,11.460000000000,   0.04800,
,,,11.480000000000,   0.04800,
,,,11.500000000000,   0.04800,
,,,11.520000000000,   0.05000,
,,,11.540000000000,  -0.04200,
,,,11.560000000000,  -0.05000,
,,,11.580000000000,  -0.05400,
,,,11.600000000000,  -0.05600,
,,,11.620000000000,  -0.05800,
,,,11.640000000000,  -0.05800,
,,,11.660000000000,  -0.06200,
,,,11.680000000000,  -0.06200,
,,,11.700000000000,  -0.06400,
,,,11.720000000000,  -0.06400,
,,,11.740000000000,  -0.06800,
,,,11.760000000000,  -0.06600,
,,,11.780000000000,  -0.06800,
,,,11.800000000000,  -0.07000,
,,,11.820000000000,  -0.07000,
,,,11.840000000000,  -0.07200,
,,,11.860000000000,  -0.07200,
,,,11.880000000000,  -0.07200,
,,,11.900000000000,  -0.07400,
,,,11.920000000000,  -0.07600,
,,,11.940000000000,  -0.07600,
,,,11.960000000000,  -0.07600,
,,,11.980000000000,  -0.07800,
,,,12.000000000000,  -0.07800,
,,,12.020000000000,  -0.08000,
,,,12.040000000000,   0.01400,
,,,12.060000000000,   0.02000,
,,,12.080000000000,   0.02200,
,,,12.100000000000,   0.02600,
,,,12.120000000000,   0.03000,
,,,12.140000000000,   0.03000,
,,,12.160000000000,   0.03200,
,,,12.180000000000,   0.03200,
,,,12.200000000000,   0.03400,
,,,12.220000000000,   0.03600,
,,,12.240000000000,   0.04000,
,,,12.260000000000,   0.03800,
,,,12.280000000000,   0.04000,
,,,12.300000000000,   0.04000,
,,,12.320000000000,   0.04200,
,,,12.340000000000,   0.04200,
,,,12.360000000000,   0.04400,
,,,12.380000000000,   0.04400,
,,,12.400000000000,   0.04600,
,,,12.420000000000,   0.04600,
,,,12.440000000000,   0.04600,
,,,12.460000000000,   0.04800,
,,,12.480000000000,   0.04800,
,,,12.500000000000,   0.04800,
,,,12.520000000000,   0.05200,
,,,12.540000000000,  -0.04200,
,,,12.560000000000,  -0.05000,
,,,12.580000000000,  -0.05200,
,,,12.600000000000,  -0.05600,
,,,12.620000000000,  -0.05800,
,,,12.640000000000,  -0.06000,
,,,12.660000000000,  -0.06200,
,,,12.680000000000,  -0.06200,
,,,12.700000000000,  -0.06400,
,,,12.720000000000,  -0.06400,
,,,12.740000000000,  -0.06800,
,,,12.760000000000,  -0.06600,
,,,12.780000000000,  -0.06600,
,,,12.800000000000,  -0.06800,
,,,12.820000000000,  -0.07000,
,,,12.840000000000,  -0.07400,
,,,12.860000000000,  -0.07400,
,,,12.880000000000,  -0.07200,
,,,12.900000000000,  -0.07400,
,,,12.920000000000,  -0.07600,
,,,12.940000000000,  -0.07400,
,,,12.960000000000,  -0.07600,
