data/raw/1_Hz_4/CNT_0,8/pre_08_1hz__5s_0/Cen/50seg_2,2kohm_centro_1hz.CSV

Record Length,2.500000e+03,,   0.000000000000,  -0.51200,
Sample Interval,2.000000e-02,,   0.020000000000,  -0.51200,
Trigger Point,0.000000000000e+00,,   0.040000000000,  -0.51200,
,,,   0.060000000000,  -0.51200,
,,,   0.080000000000,  -0.51200,
,,,   0.100000000000,  -0.51200,
Source,CH1,,   0.120000000000,  -0.51200,
Vertical Units,V,,   0.140000000000,  -0.51200,
Vertical Scale,1.000000e-01,,   0.160000000000,  -0.51200,
Vertical Offset,0.000000e+00,,   0.180000000000,  -0.51200,
Horizontal Units,s,,   0.200000000000,  -0.51200,
Horizontal Scale,5.000000e+00,,   0.220000000000,  -0.51200,
Pt Fmt,Y,,   0.240000000000,  -0.51200,
Yzero,0.000000e+00,,   0.260000000000,  -0.51200,
Probe Atten,1.000000e+00,,   0.280000000000,  -0.51200,
Model Number,TDS1012C-EDU,,   0.300000000000,  -0.51200,
Serial Number,C010984,,   0.320000000000,  -0.51200,
Firmware Version,FV:v25.04,,   0.340000000000,  -0.51200,
,,,0.360000000000,  -0.51200,
,,,0.380000000000,  -0.51200,
,,,0.400000000000,  -0.51200,
,,,0.420000000000,  -0.51200,
,,,0.440000000000,  -0.51200,
,,,0.460000000000,  -0.51200,
,,,0.480000000000,  -0.51200,
,,,0.500000000000,  -0.51200,
,,,0.520000000000,  -0.51200,
,,,0.540000000000,  -0.51200,
,,,0.560000000000,  -0.51200,
,,,0.580000000000,  -0.51200,
,,,0.600000000000,  -0.51200,
,,,0.620000000000,  -0.51200,
,,,0.640000000000,  -0.51200,
,,,0.660000000000,  -0.51200,
,,,0.680000000000,  -0.51200,
,,,0.700000000000,  -0.51200,
,,,0.720000000000,  -0.51200,
,,,0.740000000000,  -0.51200,
,,,0.760000000000,  -0.51200,
,,,0.780000000000,  -0.51200,
,,,0.800000000000,  -0.51200,
,,,0.820000000000,  -0.51200,
,,,0.840000000000,  -0.51200,
,,,0.860000000000,  -0.51200,
,,,0.880000000000,  -0.51200,
,,,0.900000000000,  -0.51200,
,,,0.920000000000,  -0.51200,
,,,0.940000000000,  -0.51200,
,,,0.960000000000,  -0.51200,
,,,0.980000000000,  -0.51200,
,,,1.000000000000,  -0.51200,
,,,1.020000000000,  -0.51200,
,,,1.040000000000,  -0.51200,
,,,1.060000000000,  -0.51200,
,,,1.080000000000,  -0.51200,
,,,1.100000000000,  -0.51200,
,,,1.120000000000,  -0.51200,
,,,1.140000000000,  -0.51200,
,,,1.160000000000,  -0.51200,
,,,1.180000000000,  -0.51200,
,,,1.200000000000,  -0.51200,
,,,1.220000000000,  -0.51200,
,,,1.240000000000,  -0.51200,
,,,1.260000000000,  -0.51200,
,,,1.280000000000,  -0.51200,
,,,1.300000000000,  -0.51200,
,,,1.320000000000,  -0.51200,
,,,1.340000000000,  -0.51200,
,,,1.360000000000,  -0.51200,
,,,1.380000000000,  -0.51200,
,,,1.400000000000,  -0.51200,
,,,1.420000000000,  -0.51200,
,,,1.440000000000,  -0.51200,
,,,1.460000000000,  -0.51200,
,,,1.480000000000,  -0.51200,
,,,1.500000000000,  -0.51200,
,,,1.520000000000,  -0.51200,
,,,1.540000000000,  -0.51200,
,,,1.560000000000,  -0.51200,
,,,1.580000000000,  -0.51200,
,,,1.600000000000,  -0.51200,
,,,1.620000000000,  -0.51200,
,,,1.640000000000,  -0.51200,
,,,1.660000000000,  -0.51200,
,,,1.680000000000,  -0.51200,
,,,1.700000000000,  -0.51200,
,,,1.720000000000,  -0.51200,
,,,1.740000000000,  -0.51200,
,,,1.760000000000,  -0.51200,
,,,1.780000000000,  -0.51200,
,,,1.800000000000,  -0.51200,
,,,1.820000000000,  -0.51200,
,,,1.840000000000,  -0.51200,
,,,1.860000000000,  -0.51200,
,,,1.880000000000,  -0.51200,
,,,1.900000000000,  -0.51200,
,,,1.920000000000,  -0.51200,
,,,1.940000000000,  -0.51200,
,,,1.960000000000,  -0.51200,
,,,1.980000000000,  -0.51200,
,,,2.000000000000,  -0.51200,
,,,2.020000000000,  -0.51200,
,,,2.040000000000,  -0.51200,
,,,2.060000000000,  -0.51200,
,,,2.080000000000,  -0.51200,
,,,2.100000000000,  -0.51200,
,,,2.120000000000,  -0.51200,
,,,2.140000000000,  -0.51200,
,,,2.160000000000,  -0.51200,
,,,2.180000000000,  -0.51200,
,,,2.200000000000,  -0.51200,
,,,2.220000000000,  -0.51200,
,,,2.240000000000,  -0.51200,
,,,2.260000000000,  -0.51200,
,,,2.280000000000,  -0.51200,
,,,2.300000000000,  -0.51200,
,,,2.320000000000,  -0.51200,
,,,2.340000000000,  -0.51200,
,,,2.360000000000,  -0.51200,
,,,2.380000000000,  -0.51200,
,,,2.400000000000,  -0.51200,
,,,2.420000000000,  -0.51200,
,,,2.440000000000,  -0.51200,
,,,2.460000000000,  -0.51200,
,,,2.480000000000,  -0.51200,
,,,2.500000000000,  -0.51200,
,,,2.520000000000,  -0.51200,
,,,2.540000000000,  -0.51200,
,,,2.560000000000,  -0.51200,
,,,2.580000000000,  -0.51200,
,,,2.600000000000,  -0.51200,
,,,2.620000000000,  -0.51200,
,,,2.640000000000,  -0.51200,
,,,2.660000000000,  -0.51200,
,,,2.680000000000,  -0.51200,
,,,2.700000000000,  -0.51200,
,,,2.720000000000,  -0.51200,
,,,2.740000000000,  -0.51200,
,,,2.760000000000,  -0.51200,
,,,2.780000000000,  -0.51200,
,,,2.800000000000,  -0.51200,
,,,2.820000000000,  -0.51200,
,,,2.840000000000,  -0.51200,
,,,2.860000000000,  -0.51200,
,,,2.880000000000,  -0.51200,
,,,2.900000000000,  -0.51200,
,,,2.920000000000,  -0.51200,
,,,2.940000000000,  -0.51200,
,,,2.960000000000,  -0.51200,
,,,2.980000000000,  -0.51200,
,,,3.000000000000,  -0.51200,
,,,3.020000000000,  -0.51200,
,,,3.040000000000,  -0.51200,
,,,3.060000000000,  -0.51200,
,,,3.080000000000,  -0.51200,
,,,3.100000000000,  -0.51200,
,,,3.120000000000,  -0.51200,
,,,3.140000000000,  -0.51200,
,,,3.160000000000,  -0.51200,
,,,3.180000000000,  -0.51200,
,,,3.200000000000,  -0.51200,
,,,3.220000000000,  -0.51200,
,,,3.240000000000,  -0.51200,
,,,3.260000000000,  -0.51200,
,,,3.280000000000,  -0.51200,
,,,3.300000000000,  -0.51200,
,,,3.320000000000,  -0.51200,
,,,3.340000000000,  -0.51200,
,,,3.360000000000,  -0.51200,
,,,3.380000000000,  -0.51200,
,,,3.400000000000,  -0.51200,
,,,3.420000000000,  -0.51200,
,,,3.440000000000,  -0.51200,
,,,3.460000000000,  -0.51200,
,,,3.480000000000,  -0.51200,
,,,3.500000000000,  -0.51200,
,,,3.520000000000,  -0.51200,
,,,3.540000000000,  -0.51200,
,,,3.560000000000,  -0.51200,
,,,3.580000000000,  -0.51200,
,,,3.600000000000,  -0.51200,
,,,3.620000000000,  -0.51200,
,,,3.640000000000,  -0.51200,
,,,3.660000000000,  -0.51200,
,,,3.680000000000,  -0.51200,
,,,3.700000000000,  -0.51200,
,,,3.720000000000,  -0.51200,
,,,3.740000000000,  -0.51200,
,,,3.760000000000,  -0.51200,
,,,3.780000000000,  -0.51200,
,,,3.800000000000,  -0.51200,
,,,3.820000000000,  -0.51200,
,,,3.840000000000,  -0.51200,
,,,3.860000000000,  -0.51200,
,,,3.880000000000,  -0.51200,
,,,3.900000000000,  -0.51200,
,,,3.920000000000,  -0.51200,
,,,3.940000000000,  -0.51200,
,,,3.960000000000,  -0.51200,
,,,3.980000000000,  -0.51200,
,,,4.000000000000,  -0.51200,
,,,4.020000000000,  -0.51200,
,,,4.040000000000,  -0.51200,
,,,4.060000000000,  -0.51200,
,,,4.080000000000,  -0.51200,
,,,4.100000000000,  -0.51200,
,,,4.120000000000,  -0.51200,
,,,4.140000000000,  -0.51200,
,,,4.160000000000,  -0.51200,
,,,4.180000000000,  -0.51200,
,,,4.200000000000,  -0.51200,
,,,4.220000000000,  -0.51200,
,,,4.240000000000,  -0.51200,
,,,4.260000000000,  -0.51200,
,,,4.280000000000,  -0.51200,
,,,4.300000000000,  -0.51200,
,,,4.320000000000,  -0.51200,
,,,4.340000000000,  -0.51200,
,,,4.360000000000,  -0.51200,
,,,4.380000000000,  -0.51200,
,,,4.400000000000,  -0.51200,
,,,4.420000000000,  -0.51200,
,,,4.440000000000,  -0.51200,
,,,4.460000000000,  -0.51200,
,,,4.480000000000,  -0.51200,
,,,4.500000000000,  -0.51200,
,,,4.520000000000,  -0.51200,
,,,4.540000000000,  -0.51200,
,,,4.560000000000,  -0.51200,
,,,4.580000000000,  -0.51200,
,,,4.600000000000,  -0.51200,
,,,4.620000000000,  -0.51200,
,,,4.640000000000,  -0.51200,
,,,4.660000000000,  -0.51200,
,,,4.680000000000,  -0.51200,
,,,4.700000000000,  -0.51200,
,,,4.720000000000,  -0.51200,
,,,4.740000000000,  -0.51200,
,,,4.760000000000,  -0.51200,
,,,4.780000000000,  -0.51200,
,,,4.800000000000,  -0.51200,
,,,4.820000000000,  -0.51200,
,,,4.840000000000,  -0.51200,
,,,4.860000000000,  -0.51200,
,,,4.880000000000,  -0.51200,
,,,4.900000000000,  -0.28000,
,,,4.920000000000,  -0.30400,
,,,4.940000000000,  -0.31200,
,,,4.960000000000,  -0.32000,
,,,4.980000000000,  -0.32000,
,,,5.000000000000,  -0.32400,
,,,5.020000000000,  -0.32800,
,,,5.040000000000,  -0.32800,
,,,5.060000000000,  -0.32800,
,,,5.080000000000,  -0.33200,
,,,5.100000000000,  -0.33600,
,,,5.120000000000,  -0.33200,
,,,5.140000000000,  -0.33600,
,,,5.160000000000,  -0.33600,
,,,5.180000000000,  -0.33600,
,,,5.200000000000,  -0.33600,
,,,5.220000000000,  -0.33600,
,,,5.240000000000,  -0.33600,
,,,5.260000000000,  -0.33600,
,,,5.280000000000,  -0.33600,
,,,5.300000000000,  -0.33600,
,,,5.320000000000,  -0.33600,
,,,5.340000000000,  -0.34000,
,,,5.360000000000,  -0.33600,
,,,5.380000000000,  -0.34400,
,,,5.400000000000,   0.28400,
,,,5.420000000000,   0.30800,
,,,5.440000000000,   0.30800,
,,,5.460000000000,   0.32000,
,,,5.480000000000,   0.32400,
,,,5.500000000000,   0.33600,
,,,5.520000000000,   0.33200,
,,,5.540000000000,   0.33200,
,,,5.560000000000,   0.33600,
,,,5.580000000000,   0.33200,
,,,5.600000000000,   0.34000,
,,,5.620000000000,   0.34000,
,,,5.640000000000,   0.34000,
,,,5.660000000000,   0.34000,
,,,5.680000000000,   0.34000,
,,,5.700000000000,   0.34000,
,,,5.720000000000,   0.34800,
,,,5.740000000000,   0.34400,
,,,5.760000000000,   0.34400,
,,,5.780000000000,   0.34800,
,,,5.800000000000,   0.34400,
,,,5.820000000000,   0.34400,
,,,5.840000000000,   0.34800,
,,,5.860000000000,   0.34400,
,,,5.880000000000,   0.34400,
,,,5.900000000000,  -0.27600,
,,,5.920000000000,  -0.30000,
,,,5.940000000000,  -0.31600,
,,,5.960000000000,  -0.31600,
,,,5.980000000000,  -0.32000,
,,,6.000000000000,  -0.32000,
,,,6.020000000000,  -0.32800,
,,,6.040000000000,  -0.32800,
,,,6.060000000000,  -0.33200,
,,,6.080000000000,  -0.32800,
,,,6.100000000000,  -0.33200,
,,,6.120000000000,  -0.33600,
,,,6.140000000000,  -0.33600,
,,,6.160000000000,  -0.33200,
,,,6.180000000000,  -0.32800,
,,,6.200000000000,  -0.33600,
,,,6.220000000000,  -0.33600,
,,,6.240000000000,  -0.33600,
,,,6.260000000000,  -0.33600,
,,,6.280000000000,  -0.33600,
,,,6.300000000000,  -0.33600,
,,,6.320000000000,  -0.33600,
,,,6.340000000000,  -0.33600,
,,,6.360000000000,  -0.33600,
,,,6.380000000000,  -0.34000,
,,,6.400000000000,   0.28400,
,,,6.420000000000,   0.30400,
,,,6.440000000000,   0.31600,
,,,6.460000000000,   0.32000,
,,,6.480000000000,   0.32800,
,,,6.500000000000,   0.33200,
,,,6.520000000000,   0.32800,
,,,6.540000000000,   0.33200,
,,,6.560000000000,   0.33600,
,,,6.580000000000,   0.33600,
,,,6.600000000000,   0.34000,
,,,6.620000000000,   0.34000,
,,,6.640000000000,   0.34000,
,,,6.660000000000,   0.34000,
,,,6.680000000000,   0.33200,
,,,6.700000000000,   0.34000,
,,,6.720000000000,   0.34400,
,,,6.740000000000,   0.34000,
,,,6.760000000000,   0.34400,
,,,6.780000000000,   0.34400,
,,,6.800000000000,   0.34400,
,,,6.820000000000,   0.34800,
,,,6.840000000000,   0.34400,
,,,6.860000000000,   0.35200,
,,,6.880000000000,   0.34400,
,,,6.900000000000,  -0.27600,
,,,6.920000000000,  -0.30000,
,,,6.940000000000,  -0.31200,
,,,6.960000000000,  -0.31600,
,,,6.980000000000,  -0.31600,
,,,7.000000000000,  -0.32800,
,,,7.020000000000,  -0.32400,
,,,7.040000000000,  -0.33200,
,,,7.060000000000,  -0.32800,
,,,7.080000000000,  -0.33200,
,,,7.100000000000,  -0.32800,
,,,7.120000000000,  -0.33200,
,,,7.140000000000,  -0.33600,
,,,7.160000000000,  -0.33200,
,,,7.180000000000,  -0.33200,
,,,7.200000000000,  -0.33600,
,,,7.220000000000,  -0.33600,
,,,7.240000000000,  -0.33200,
,,,7.260000000000,  -0.33600,
,,,7.280000000000,  -0.34000,
,,,7.300000000000,  -0.33600,
,,,7.320000000000,  -0.33600,
,,,7.340000000000,  -0.34000,
,,,7.360000000000,  -0.34000,
,,,7.380000000000,  -0.33600,
,,,7.400000000000,   0.28000,
,,,7.420000000000,   0.30400,
,,,7.440000000000,   0.31600,
,,,7.460000000000,   0.32400,
,,,7.480000000000,   0.32000,
,,,7.500000000000,   0.32800,
,,,7.520000000000,   0.32800,
,,,7.540000000000,   0.33200,
,,,7.560000000000,   0.34400,
,,,7.580000000000,   0.33600,
,,,7.600000000000,   0.33600,
,,,7.620000000000,   0.33600,
,,,7.640000000000,   0.34000,
,,,7.660000000000,   0.34000,
,,,7.680000000000,   0.34000,
,,,7.700000000000,   0.34400,
,,,7.720000000000,   0.34800,
,,,7.740000000000,   0.34400,
,,,7.760000000000,   0.34400,
,,,7.780000000000,   0.34400,
,,,7.800000000000,   0.34400,
,,,7.820000000000,   0.34800,
,,,7.840000000000,   0.34800,
,,,7.860000000000,   0.34400,
,,,7.880000000000,   0.34400,
,,,7.900000000000,  -0.27200,
,,,7.920000000000,  -0.30000,
,,,7.940000000000,  -0.30800,
,,,7.960000000000,  -0.31600,
,,,7.980000000000,  -0.32000,
,,,8.000000000000,  -0.32400,
,,,8.020000000000,  -0.32800,
,,,8.040000000000,  -0.33200,
,,,8.060000000000,  -0.33200,
,,,8.080000000000,  -0.33200,
,,,8.100000000000,  -0.33200,
,,,8.120000000000,  -0.33200,
,,,8.140000000000,  -0.33600,
,,,8.160000000000,  -0.33200,
,,,8.180000000000,  -0.33600,
,,,8.200000000000,  -0.33600,
,,,8.220000000000,  -0.33600,
,,,8.240000000000,  -0.33600,
,,,8.260000000000,  -0.33600,
,,,8.280000000000,  -0.33600,
,,,8.300000000000,  -0.33600,
,,,8.320000000000,  -0.33600,
,,,8.340000000000,  -0.33600,
,,,8.360000000000,  -0.34000,
,,,8.380000000000,  -0.33600,
,,,8.400000000000,   0.27600,
,,,8.420000000000,   0.30400,
,,,8.440000000000,   0.31600,
,,,8.460000000000,   0.32000,
,,,8.480000000000,   0.32800,
,,,8.500000000000,   0.32800,
,,,8.520000000000,   0.32800,
,,,8.540000000000,   0.33200,
,,,8.560000000000,   0.33600,
,,,8.580000000000,   0.34000,
,,,8.600000000000,   0.34000,
,,,8.620000000000,   0.34000,
,,,8.640000000000,   0.34000,
,,,8.660000000000,   0.34000,
,,,8.680000000000,   0.34000,
,,,8.700000000000,   0.34400,
,,,8.720000000000,   0.34400,
,,,8.740000000000,   0.34400,
,,,8.760000000000,   0.34400,
,,,8.780000000000,   0.34800,
,,,8.800000000000,   0.34400,
,,,8.820000000000,   0.34800,
,,,8.840000000000,   0.34800,
,,,8.860000000000,   0.34400,
,,,8.880000000000,   0.34800,
,,,8.900000000000,  -0.26400,
,,,8.920000000000,  -0.29600,
,,,8.940000000000,  -0.30800,
,,,8.960000000000,  -0.31600,
,,,8.980000000000,  -0.32400,
,,,9.000000000000,  -0.32000,
,,,9.020000000000,  -0.32400,
,,,9.040000000000,  -0.33200,
,,,9.060000000000,  -0.33200,
,,,9.080000000000,  -0.33200,
,,,9.100000000000,  -0.33200,
,,,9.120000000000,  -0.33200,
,,,9.140000000000,  -0.33200,
,,,9.160000000000,  -0.33600,
,,,9.180000000000,  -0.33600,
,,,9.200000000000,  -0.33600,
,,,9.220000000000,  -0.33600,
,,,9.240000000000,  -0.33600,
,,,9.260000000000,  -0.33600,
,,,9.280000000000,  -0.34000,
,,,9.300000000000,  -0.34000,
,,,9.320000000000,  -0.33600,
,,,9.340000000000,  -0.33600,
,,,9.360000000000,  -0.33600,
,,,9.380000000000,  -0.34000,
,,,9.400000000000,   0.27200,
,,,9.420000000000,   0.30400,
,,,9.440000000000,   0.31200,
,,,9.460000000000,   0.32000,
,,,9.480000000000,   0.32400,
,,,9.500000000000,   0.32800,
,,,9.520000000000,   0.32800,
,,,9.540000000000,   0.33200,
,,,9.560000000000,   0.33600,
,,,9.580000000000,   0.33600,
,,,9.600000000000,   0.34000,
,,,9.620000000000,   0.33600,
,,,9.640000000000,   0.33600,
,,,9.660000000000,   0.34000,
,,,9.680000000000,   0.34400,
,,,9.700000000000,   0.34400,
,,,9.720000000000,   0.34400,
,,,9.740000000000,   0.34400,
,,,9.760000000000,   0.34400,
,,,9.780000000000,   0.34400,
,,,9.800000000000,   0.34400,
,,,9.820000000000,   0.34000,
,,,9.840000000000,   0.34400,
,,,9.860000000000,   0.34800,
,,,9.880000000000,   0.34800,
,,,9.900000000000,  -0.26000,
,,,9.920000000000,  -0.29600,
,,,9.940000000000,  -0.30800,
,,,9.960000000000,  -0.31600,
,,,9.980000000000,  -0.32000,
,,,10.000000000000,  -0.32400,
,,,10.020000000000,  -0.32800,
,,,10.040000000000,  -0.32800,
,,,10.060000000000,  -0.33200,
,,,10.080000000000,  -0.32800,
,,,10.100000000000,  -0.33200,
,,,10.120000000000,  -0.33600,
,,,10.140000000000,  -0.33600,
,,,10.160000000000,  -0.33600,
,,,10.180000000000,  -0.33200,
,,,10.200000000000,  -0.33200,
,,,10.220000000000,  -0.33600,
,,,10.240000000000,  -0.33600,
,,,10.260000000000,  -0.33600,
,,,10.280000000000,  -0.33600,
,,,10.300000000000,  -0.33600,
,,,10.320000000000,  -0.34000,
,,,10.340000000000,  -0.33600,
,,,10.360000000000,  -0.34000,
,,,10.380000000000,  -0.34000,
,,,10.400000000000,   0.26400,
,,,10.420000000000,   0.30000,
,,,10.440000000000,   0.30800,
,,,10.460000000000,   0.32000,
,,,10.480000000000,   0.32800,
,,,10.500000000000,   0.32800,
,,,10.520000000000,   0.33200,
,,,10.540000000000,   0.33200,
,,,10.560000000000,   0.33600,
,,,10.580000000000,   0.33600,
,,,10.600000000000,   0.33600,
,,,10.620000000000,   0.33600,
,,,10.640000000000,   0.34400,
,,,10.660000000000,   0.33600,
,,,10.680000000000,   0.34400,
,,,10.700000000000,   0.34000,
,,,10.720000000000,   0.34000,
,,,10.740000000000,   0.34400,
,,,10.760000000000,   0.34400,
,,,10.780000000000,   0.34400,
,,,10.800000000000,   0.34400,
,,,10.820000000000,   0.34800,
,,,10.840000000000,   0.34400,
,,,10.860000000000,   0.34000,
,,,10.880000000000,   0.34400,
,,,10.900000000000,  -0.25600,
,,,10.920000000000,  -0.29200,
,,,10.940000000000,  -0.30800,
,,,10.960000000000,  -0.31600,
,,,10.980000000000,  -0.31600,
,,,11.000000000000,  -0.32000,
,,,11.020000000000,  -0.33200,
,,,11.040000000000,  -0.32800,
,,,11.060000000000,  -0.32800,
,,,11.080000000000,  -0.33200,
,,,11.100000000000,  -0.33200,
,,,11.120000000000,  -0.33600,
,,,11.140000000000,  -0.33600,
,,,11.160000000000,  -0.33200,
,,,11.180000000000,  -0.33600,
,,,11.200000000000,  -0.33600,
,,,11.220000000000,  -0.33200,
,,,11.240000000000,  -0.33600,
,,,11.260000000000,  -0.34000,
,,,11.280000000000,  -0.33600,
,,,11.300000000000,  -0.34000,
,,,11.320000000000,  -0.33600,
,,,11.340000000000,  -0.33600,
,,,11.360000000000,  -0.34000,
,,,11.380000000000,  -0.33600,
,,,11.400000000000,   0.25600,
,,,11.420000000000,   0.30000,
,,,11.440000000000,   0.31200,
,,,11.460000000000,   0.32000,
,,,11.480000000000,   0.32000,
,,,11.500000000000,   0.32400,
,,,11.520000000000,   0.32800,
,,,11.540000000000,   0.33600,
,,,11.560000000000,   0.33600,
,,,11.580000000000,   0.33600,
,,,11.600000000000,   0.34000,
,,,11.620000000000,   0.33600,
,,,11.640000000000,   0.34000,
,,,11.660000000000,   0.34000,
,,,11.680000000000,   0.34000,
,,,11.700000000000,   0.33600,
,,,11.720000000000,   0.34000,
,,,11.740000000000,   0.34400,
,,,11.760000000000,   0.34400,
,,,11.780000000000,   0.34800,
,,,11.800000000000,   0.34800,
,,,11.820000000000,   0.34400,
,,,11.840000000000,   0.34400,
,,,11.860000000000,   0.34800,
,,,11.880000000000,   0.34400,
,,,11.900000000000,  -0.24000,
,,,11.920000000000,  -0.29600,
,,,11.940000000000,  -0.30800,
,,,11.960000000000,  -0.31200,
,,,11.980000000000,  -0.31600,
,,,12.000000000000,  -0.32000,
,,,12.020000000000,  -0.32000,
,,,12.040000000000,  -0.32800,
,,,12.060000000000,  -0.32800,
,,,12.080000000000,  -0.33200,
,,,12.100000000000,  -0.33200,
,,,12.120000000000,  -0.33200,
,,,12.140000000000,  -0.33600,
,,,12.160000000000,  -0.33200,
,,,12.180000000000,  -0.33600,
,,,12.200000000000,  -0.33600,
,,,12.220000000000,  -0.33600,
,,,12.240000000000,  -0.33600,
,,,12.260000000000,  -0.33600,
,,,12.280000000000,  -0.33600,
,,,12.300000000000,  -0.34000,
,,,12.320000000000,  -0.34000,
,,,12.340000000000,  -0.33600,
,,,12.360000000000,  -0.33600,
,,,12.380000000000,  -0.33600,
,,,12.400000000000,   0.24400,
,,,12.420000000000,   0.29600,
,,,12.440000000000,   0.31200,
,,,12.460000000000,   0.31600,
,,,12.480000000000,   0.32400,
,,,12.500000000000,   0.32800,
,,,12.520000000000,   0.32800,
,,,12.540000000000,   0.33200,
,,,12.560000000000,   0.33600,
,,,12.580000000000,   0.33600,
,,,12.600000000000,   0.34000,
,,,12.620000000000,   0.33600,
,,,12.640000000000,   0.33600,
,,,12.660000000000,   0.34000,
,,,12.680000000000,   0.34000,
,,,12.700000000000,   0.34400,
,,,12.720000000000,   0.34400,
,,,12.740000000000,   0.34000,
,,,12.760000000000,   0.34800,
,,,12.780000000000,   0.34400,
,,,12.800000000000,   0.34800,
,,,12.820000000000,   0.34800,
,,,12.840000000000,   0.34800,
,,,12.860000000000,   0.34400,
,,,12.880000000000,   0.34800,
,,,12.900000000000,  -0.22400,
,,,12.920000000000,  -0.28800,
,,,12.940000000000,  -0.30800,
,,,12.960000000000,  -0.31200,
