data/interim/2_Hz/CNT_0,5/pre_05_2hz__5s_1/Cen_3.CSV

Record Length,2.500000e+03,,   0.000000000000,   0.12000,
Sample Interval,2.000000e-02,,   0.020000000000,   0.12000,
Trigger Point,0.000000000000e+00,,   0.040000000000,  -0.11600,
,,,   0.060000000000,  -0.12400,
,,,   0.080000000000,  -0.12400,
,,,   0.100000000000,  -0.12400,
Source,CH2,,   0.120000000000,  -0.12400,
Vertical Units,V,,   0.140000000000,  -0.12800,
Vertical Scale,1.000000e-01,,   0.160000000000,  -0.12800,
Vertical Offset,-1.520000e-01,,   0.180000000000,  -0.12800,
Horizontal Units,s,,   0.200000000000,  -0.12800,
Horizontal Scale,5.000000e+00,,   0.220000000000,  -0.12800,
Pt Fmt,Y,,   0.240000000000,  -0.13200,
Yzero,0.000000e+00,,   0.260000000000,  -0.12800,
Probe Atten,1.000000e+00,,   0.280000000000,   0.10800,
Model Number,TDS1012C-EDU,,   0.300000000000,   0.10400,
Serial Number,C010951,,   0.320000000000,   0.10800,
Firmware Version,FV:v25.04,,   0.340000000000,   0.11200,
,,,0.360000000000,   0.11200,
,,,0.380000000000,   0.12000,
,,,0.400000000000,   0.12000,
,,,0.420000000000,   0.12000,
,,,0.440000000000,   0.11600,
,,,0.460000000000,   0.12000,
,,,0.480000000000,   0.12000,
,,,0.500000000000,   0.12000,
,,,0.520000000000,   0.12000,
,,,0.540000000000,  -0.12000,
,,,0.560000000000,  -0.12000,
,,,0.580000000000,  -0.12000,
,,,0.600000000000,  -0.12400,
,,,0.620000000000,  -0.12800,
,,,0.640000000000,  -0.13200,
,,,0.660000000000,  -0.13200,
,,,0.680000000000,  -0.12800,
,,,0.700000000000,  -0.12800,
,,,0.720000000000,  -0.12800,
,,,0.740000000000,  -0.13200,
,,,0.760000000000,  -0.12800,
,,,0.780000000000,   0.10400,
,,,0.800000000000,   0.11200,
,,,0.820000000000,   0.11200,
,,,0.840000000000,   0.10800,
,,,0.860000000000,   0.11200,
,,,0.880000000000,   0.11600,
,,,0.900000000000,   0.11200,
,,,0.920000000000,   0.12000,
,,,0.940000000000,   0.11600,
,,,0.960000000000,   0.12000,
,,,0.980000000000,   0.12000,
,,,1.000000000000,   0.12000,
,,,1.020000000000,   0.12000,
,,,1.040000000000,  -0.12000,
,,,1.060000000000,  -0.12400,
,,,1.080000000000,  -0.12400,
,,,1.100000000000,  -0.12400,
,,,1.120000000000,  -0.12400,
,,,1.140000000000,  -0.12800,
,,,1.160000000000,  -0.12800,
,,,1.180000000000,  -0.12800,
,,,1.200000000000,  -0.12800,
,,,1.220000000000,  -0.12800,
,,,1.240000000000,  -0.13200,
,,,1.260000000000,  -0.13200,
,,,1.280000000000,   0.10400,
,,,1.300000000000,   0.10800,
,,,1.320000000000,   0.11200,
,,,1.340000000000,   0.11200,
,,,1.360000000000,   0.11200,
,,,1.380000000000,   0.11600,
,,,1.400000000000,   0.12000,
,,,1.420000000000,   0.11600,
,,,1.440000000000,   0.12000,
,,,1.460000000000,   0.11600,
,,,1.480000000000,   0.12000,
,,,1.500000000000,   0.12000,
,,,1.520000000000,  -0.09600,
,,,1.540000000000,  -0.12000,
,,,1.560000000000,  -0.12000,
,,,1.580000000000,  -0.12400,
,,,1.600000000000,  -0.12800,
,,,1.620000000000,  -0.12800,
,,,1.640000000000,  -0.12800,
,,,1.660000000000,  -0.12800,
,,,1.680000000000,  -0.12800,
,,,1.700000000000,  -0.12800,
,,,1.720000000000,  -0.12800,
,,,1.740000000000,  -0.13200,
,,,1.760000000000,  -0.13200,
,,,1.780000000000,   0.10400,
,,,1.800000000000,   0.11200,
,,,1.820000000000,   0.11200,
,,,1.840000000000,   0.11200,
,,,1.860000000000,   0.11200,
,,,1.880000000000,   0.11600,
,,,1.900000000000,   0.11600,
,,,1.920000000000,   0.11600,
,,,1.940000000000,   0.11600,
,,,1.960000000000,   0.11600,
,,,1.980000000000,   0.12000,
,,,2.000000000000,   0.11600,
,,,2.020000000000,  -0.10400,
,,,2.040000000000,  -0.12000,
,,,2.060000000000,  -0.12400,
,,,2.080000000000,  -0.12400,
,,,2.100000000000,  -0.12400,
,,,2.120000000000,  -0.12800,
,,,2.140000000000,  -0.12800,
,,,2.160000000000,  -0.12800,
,,,2.180000000000,  -0.12800,
,,,2.200000000000,  -0.12800,
,,,2.220000000000,  -0.12800,
,,,2.240000000000,  -0.13200,
,,,2.260000000000,  -0.12800,
,,,2.280000000000,   0.10400,
,,,2.300000000000,   0.10800,
,,,2.320000000000,   0.11200,
,,,2.340000000000,   0.11200,
,,,2.360000000000,   0.11200,
,,,2.380000000000,   0.11600,
,,,2.400000000000,   0.12000,
,,,2.420000000000,   0.11600,
,,,2.440000000000,   0.11600,
,,,2.460000000000,   0.11600,
,,,2.480000000000,   0.11600,
,,,2.500000000000,   0.12000,
,,,2.520000000000,  -0.10800,
,,,2.540000000000,  -0.12000,
,,,2.560000000000,  -0.12400,
,,,2.580000000000,  -0.12400,
,,,2.600000000000,  -0.12400,
,,,2.620000000000,  -0.12400,
,,,2.640000000000,  -0.12800,
,,,2.660000000000,  -0.12800,
,,,2.680000000000,  -0.12800,
,,,2.700000000000,  -0.12800,
,,,2.720000000000,  -0.12800,
,,,2.740000000000,  -0.13200,
,,,2.760000000000,  -0.13200,
,,,2.780000000000,   0.10400,
,,,2.800000000000,   0.11200,
,,,2.820000000000,   0.11200,
,,,2.840000000000,   0.11200,
,,,2.860000000000,   0.11200,
,,,2.880000000000,   0.11600,
,,,2.900000000000,   0.11600,
,,,2.920000000000,   0.12000,
,,,2.940000000000,   0.11600,
,,,2.960000000000,   0.11600,
,,,2.980000000000,   0.12000,
,,,3.000000000000,   0.12000,
,,,3.020000000000,  -0.10800,
,,,3.040000000000,  -0.12000,
,,,3.060000000000,  -0.12800,
,,,3.080000000000,  -0.12400,
,,,3.100000000000,  -0.12400,
,,,3.120000000000,  -0.12400,
,,,3.140000000000,  -0.12800,
,,,3.160000000000,  -0.12800,
,,,3.180000000000,  -0.12400,
,,,3.200000000000,  -0.12800,
,,,3.220000000000,  -0.12800,
,,,3.240000000000,  -0.12800,
,,,3.260000000000,  -0.12800,
,,,3.280000000000,   0.10400,
,,,3.300000000000,   0.10800,
,,,3.320000000000,   0.11200,
,,,3.340000000000,   0.11200,
,,,3.360000000000,   0.11200,
,,,3.380000000000,   0.11200,
,,,3.400000000000,   0.12000,
,,,3.420000000000,   0.11600,
,,,3.440000000000,   0.11600,
,,,3.460000000000,   0.12000,
,,,3.480000000000,   0.11600,
,,,3.500000000000,   0.12000,
,,,3.520000000000,  -0.11200,
,,,3.540000000000,  -0.12000,
,,,3.560000000000,  -0.12400,
,,,3.580000000000,  -0.12400,
,,,3.600000000000,  -0.12400,
,,,3.620000000000,  -0.12400,
,,,3.640000000000,  -0.12800,
,,,3.660000000000,  -0.12800,
,,,3.680000000000,  -0.13200,
,,,3.700000000000,  -0.12800,
,,,3.720000000000,  -0.12800,
,,,3.740000000000,  -0.13200,
,,,3.760000000000,  -0.13200,
,,,3.780000000000,   0.10400,
,,,3.800000000000,   0.11200,
,,,3.820000000000,   0.11200,
,,,3.840000000000,   0.11600,
,,,3.860000000000,   0.11200,
,,,3.880000000000,   0.11200,
,,,3.900000000000,   0.11600,
,,,3.920000000000,   0.11600,
,,,3.940000000000,   0.11600,
,,,3.960000000000,   0.11600,
,,,3.980000000000,   0.11600,
,,,4.000000000000,   0.12000,
,,,4.020000000000,  -0.11200,
,,,4.040000000000,  -0.12000,
,,,4.060000000000,  -0.12000,
,,,4.080000000000,  -0.12400,
,,,4.100000000000,  -0.12400,
,,,4.120000000000,  -0.12400,
,,,4.140000000000,  -0.12800,
,,,4.160000000000,  -0.12800,
,,,4.180000000000,  -0.12800,
,,,4.200000000000,  -0.12800,
,,,4.220000000000,  -0.12800,
,,,4.240000000000,  -0.13200,
,,,4.260000000000,  -0.13200,
,,,4.280000000000,   0.10400,
,,,4.300000000000,   0.11200,
,,,4.320000000000,   0.11200,
,,,4.340000000000,   0.11200,
,,,4.360000000000,   0.11600,
,,,4.380000000000,   0.11200,
,,,4.400000000000,   0.11600,
,,,4.420000000000,   0.11600,
,,,4.440000000000,   0.12000,
,,,4.460000000000,   0.12000,
,,,4.480000000000,   0.11600,
,,,4.500000000000,   0.12400,
,,,4.520000000000,  -0.10800,
,,,4.540000000000,  -0.12000,
,,,4.560000000000,  -0.12000,
,,,4.580000000000,  -0.12400,
,,,4.600000000000,  -0.12800,
,,,4.620000000000,  -0.12400,
,,,4.640000000000,  -0.12800,
,,,4.660000000000,  -0.12800,
,,,4.680000000000,  -0.12800,
,,,4.700000000000,  -0.12800,
,,,4.720000000000,  -0.12800,
,,,4.740000000000,  -0.13200,
,,,4.760000000000,  -0.13200,
,,,4.780000000000,   0.10400,
,,,4.800000000000,   0.11200,
,,,4.820000000000,   0.11600,
,,,4.840000000000,   0.11200,
,,,4.860000000000,   0.11200,
,,,4.880000000000,   0.11200,
,,,4.900000000000,   0.11600,
,,,4.920000000000,   0.11600,
,,,4.940000000000,   0.11600,
,,,4.960000000000,   0.11600,
,,,4.980000000000,   0.11600,
,,,5.000000000000,   0.12000,
,,,5.020000000000,  -0.11200,
,,,5.040000000000,  -0.12000,
,,,5.060000000000,  -0.12400,
,,,5.080000000000,  -0.12800,
,,,5.100000000000,  -0.12800,
,,,5.120000000000,  -0.12800,
,,,5.140000000000,  -0.12800,
,,,5.160000000000,  -0.12800,
,,,5.180000000000,  -0.12800,
,,,5.200000000000,  -0.12800,
,,,5.220000000000,  -0.12800,
,,,5.240000000000,  -0.12800,
,,,5.260000000000,  -0.13200,
,,,5.280000000000,   0.10400,
,,,5.300000000000,   0.10800,
,,,5.320000000000,   0.11200,
,,,5.340000000000,   0.11200,
,,,5.360000000000,   0.11200,
,,,5.380000000000,   0.11600,
,,,5.400000000000,   0.11600,
,,,5.420000000000,   0.11600,
,,,5.440000000000,   0.11600,
,,,5.460000000000,   0.11600,
,,,5.480000000000,   0.11600,
,,,5.500000000000,   0.12000,
,,,5.520000000000,  -0.11200,
,,,5.540000000000,  -0.12000,
,,,5.560000000000,  -0.12000,
,,,5.580000000000,  -0.12400,
,,,5.600000000000,  -0.12400,
,,,5.620000000000,  -0.12400,
,,,5.640000000000,  -0.12800,
,,,5.660000000000,  -0.12800,
,,,5.680000000000,  -0.12800,
,,,5.700000000000,  -0.12800,
,,,5.720000000000,  -0.12800,
,,,5.740000000000,  -0.13200,
,,,5.760000000000,  -0.13200,
,,,5.780000000000,   0.10400,
,,,5.800000000000,   0.10800,
,,,5.820000000000,   0.11200,
,,,5.840000000000,   0.11200,
,,,5.860000000000,   0.11200,
,,,5.880000000000,   0.11200,
,,,5.900000000000,   0.11600,
,,,5.920000000000,   0.11600,
,,,5.940000000000,   0.12000,
,,,5.960000000000,   0.11600,
,,,5.980000000000,   0.12000,
,,,6.000000000000,   0.12000,
,,,6.020000000000,  -0.11200,
,,,6.040000000000,  -0.11600,
,,,6.060000000000,  -0.12400,
,,,6.080000000000,  -0.12800,
,,,6.100000000000,  -0.12400,
,,,6.120000000000,  -0.12400,
,,,6.140000000000,  -0.12400,
,,,6.160000000000,  -0.13200,
,,,6.180000000000,  -0.12400,
,,,6.200000000000,  -0.13200,
,,,6.220000000000,  -0.13200,
,,,6.240000000000,  -0.12800,
,,,6.260000000000,  -0.13200,
,,,6.280000000000,   0.10800,
,,,6.300000000000,   0.11200,
,,,6.320000000000,   0.11200,
,,,6.340000000000,   0.11200,
,,,6.360000000000,   0.11600,
,,,6.380000000000,   0.11600,
,,,6.400000000000,   0.11600,
,,,6.420000000000,   0.11600,
,,,6.440000000000,   0.11600,
,,,6.460000000000,   0.12000,
,,,6.480000000000,   0.12000,
,,,6.500000000000,   0.12000,
,,,6.520000000000,  -0.11200,
,,,6.540000000000,  -0.12000,
,,,6.560000000000,  -0.12400,
,,,6.580000000000,  -0.12800,
,,,6.600000000000,  -0.12800,
,,,6.620000000000,  -0.12800,
,,,6.640000000000,  -0.12400,
,,,6.660000000000,  -0.12800,
,,,6.680000000000,  -0.13200,
,,,6.700000000000,  -0.12800,
,,,6.720000000000,  -0.12800,
,,,6.740000000000,  -0.13200,
,,,6.760000000000,  -0.13200,
,,,6.780000000000,   0.10400,
,,,6.800000000000,   0.11200,
,,,6.820000000000,   0.11200,
,,,6.840000000000,   0.11200,
,,,6.860000000000,   0.11600,
,,,6.880000000000,   0.11200,
,,,6.900000000000,   0.11600,
,,,6.920000000000,   0.11600,
,,,6.940000000000,   0.12000,
,,,6.960000000000,   0.11600,
,,,6.980000000000,   0.11600,
,,,7.000000000000,   0.12000,
,,,7.020000000000,  -0.11600,
,,,7.040000000000,  -0.12400,
,,,7.060000000000,  -0.12400,
,,,7.080000000000,  -0.12800,
,,,7.100000000000,  -0.12400,
,,,7.120000000000,  -0.12800,
,,,7.140000000000,  -0.12800,
,,,7.160000000000,  -0.12800,
,,,7.180000000000,  -0.13200,
,,,7.200000000000,  -0.12800,
,,,7.220000000000,  -0.13200,
,,,7.240000000000,  -0.12800,
,,,7.260000000000,  -0.13200,
,,,7.280000000000,   0.10400,
,,,7.300000000000,   0.11200,
,,,7.320000000000,   0.11200,
,,,7.340000000000,   0.11200,
,,,7.360000000000,   0.11200,
,,,7.380000000000,   0.11200,
,,,7.400000000000,   0.12000,
,,,7.420000000000,   0.11600,
,,,7.440000000000,   0.11600,
,,,7.460000000000,   0.12000,
,,,7.480000000000,   0.11600,
,,,7.500000000000,   0.12000,
,,,7.520000000000,  -0.11600,
,,,7.540000000000,  -0.11600,
,,,7.560000000000,  -0.12400,
,,,7.580000000000,  -0.12400,
,,,7.600000000000,  -0.12400,
,,,7.620000000000,  -0.12400,
,,,7.640000000000,  -0.12800,
,,,7.660000000000,  -0.12800,
,,,7.680000000000,  -0.12800,
,,,7.700000000000,  -0.13200,
,,,7.720000000000,  -0.13200,
,,,7.740000000000,  -0.12800,
,,,7.760000000000,  -0.13200,
,,,7.780000000000,   0.10800,
,,,7.800000000000,   0.10800,
,,,7.820000000000,   0.11200,
,,,7.840000000000,   0.11600,
,,,7.860000000000,   0.11200,
,,,7.880000000000,   0.11600,
,,,7.900000000000,   0.11600,
,,,7.920000000000,   0.11600,
,,,7.940000000000,   0.12000,
,,,7.960000000000,   0.11600,
,,,7.980000000000,   0.11600,
,,,8.000000000000,   0.12000,
,,,8.020000000000,  -0.11600,
,,,8.040000000000,  -0.12000,
,,,8.060000000000,  -0.12400,
,,,8.080000000000,  -0.12800,
,,,8.100000000000,  -0.12400,
,,,8.120000000000,  -0.12400,
,,,8.140000000000,  -0.12400,
,,,8.160000000000,  -0.12800,
,,,8.180000000000,  -0.13200,
,,,8.200000000000,  -0.12800,
,,,8.220000000000,  -0.12800,
,,,8.240000000000,  -0.12800,
,,,8.260000000000,  -0.13200,
,,,8.280000000000,   0.10400,
,,,8.300000000000,   0.10800,
,,,8.320000000000,   0.11200,
,,,8.340000000000,   0.11200,
,,,8.360000000000,   0.11200,
,,,8.380000000000,   0.11200,
,,,8.400000000000,   0.11600,
,,,8.420000000000,   0.11600,
,,,8.440000000000,   0.12000,
,,,8.460000000000,   0.11600,
,,,8.480000000000,   0.11600,
,,,8.500000000000,   0.12000,
,,,8.520000000000,  -0.11600,
,,,8.540000000000,  -0.12000,
,,,8.560000000000,  -0.12400,
,,,8.580000000000,  -0.12400,
,,,8.600000000000,  -0.12800,
,,,8.620000000000,  -0.12400,
,,,8.640000000000,  -0.12800,
,,,8.660000000000,  -0.12800,
,,,8.680000000000,  -0.12800,
,,,8.700000000000,  -0.12800,
,,,8.720000000000,  -0.12800,
,,,8.740000000000,  -0.13200,
,,,8.760000000000,  -0.13200,
,,,8.780000000000,   0.10400,
,,,8.800000000000,   0.10800,
,,,8.820000000000,   0.11200,
,,,8.840000000000,   0.11200,
,,,8.860000000000,   0.11200,
,,,8.880000000000,   0.11200,
,,,8.900000000000,   0.11600,
,,,8.920000000000,   0.11600,
,,,8.940000000000,   0.11600,
,,,8.960000000000,   0.12000,
,,,8.980000000000,   0.12000,
,,,9.000000000000,   0.12000,
,,,9.020000000000,  -0.11600,
,,,9.040000000000,  -0.12000,
,,,9.060000000000,  -0.12400,
,,,9.080000000000,  -0.12400,
,,,9.100000000000,  -0.12800,
,,,9.120000000000,  -0.12400,
,,,9.140000000000,  -0.12800,
,,,9.160000000000,  -0.12800,
,,,9.180000000000,  -0.13200,
,,,9.200000000000,  -0.13200,
,,,9.220000000000,  -0.12800,
,,,9.240000000000,  -0.13200,
,,,9.260000000000,  -0.13200,
,,,9.280000000000,   0.10400,
,,,9.300000000000,   0.10800,
,,,9.320000000000,   0.11200,
,,,9.340000000000,   0.11200,
,,,9.360000000000,   0.11600,
,,,9.380000000000,   0.11600,
,,,9.400000000000,   0.11600,
,,,9.420000000000,   0.12000,
,,,9.440000000000,   0.12400,
,,,9.460000000000,   0.12000,
,,,9.480000000000,   0.12000,
,,,9.500000000000,   0.12000,
,,,9.520000000000,  -0.11600,
,,,9.540000000000,  -0.12000,
,,,9.560000000000,  -0.12400,
,,,9.580000000000,  -0.12400,
,,,9.600000000000,  -0.12400,
,,,9.620000000000,  -0.12400,
,,,9.640000000000,  -0.12400,
,,,9.660000000000,  -0.12800,
,,,9.680000000000,  -0.13200,
,,,9.700000000000,  -0.13200,
,,,9.720000000000,  -0.13200,
,,,9.740000000000,  -0.12800,
,,,9.760000000000,   0.07600,
,,,9.780000000000,   0.10400,
,,,9.800000000000,   0.10800,
,,,9.820000000000,   0.11200,
,,,9.840000000000,   0.11200,
,,,9.860000000000,   0.11600,
,,,9.880000000000,   0.11600,
,,,9.900000000000,   0.11600,
,,,9.920000000000,   0.11600,
,,,9.940000000000,   0.12000,
,,,9.960000000000,   0.12000,
,,,9.980000000000,   0.11600,
,,,10.000000000000,   0.12000,
,,,10.020000000000,  -0.11600,
,,,10.040000000000,  -0.12000,
,,,10.060000000000,  -0.12400,
,,,10.080000000000,  -0.12800,
,,,10.100000000000,  -0.12800,
,,,10.120000000000,  -0.12400,
,,,10.140000000000,  -0.12800,
,,,10.160000000000,  -0.12800,
,,,10.180000000000,  -0.12800,
,,,10.200000000000,  -0.12800,
,,,10.220000000000,  -0.12800,
,,,10.240000000000,  -0.12800,
,,,10.260000000000,   0.09200,
,,,10.280000000000,   0.10400,
,,,10.300000000000,   0.10800,
,,,10.320000000000,   0.11200,
,,,10.340000000000,   0.11200,
,,,10.360000000000,   0.11600,
,,,10.380000000000,   0.11200,
,,,10.400000000000,   0.11600,
,,,10.420000000000,   0.11600,
,,,10.440000000000,   0.12000,
,,,10.460000000000,   0.12000,
,,,10.480000000000,   0.12000,
,,,10.500000000000,   0.12000,
,,,10.520000000000,  -0.12000,
,,,10.540000000000,  -0.12000,
,,,10.560000000000,  -0.12400,
,,,10.580000000000,  -0.12800,
,,,10.600000000000,  -0.12800,
,,,10.620000000000,  -0.12400,
,,,10.640000000000,  -0.12400,
,,,10.660000000000,  -0.12800,
,,,10.680000000000,  -0.12800,
,,,10.700000000000,  -0.12800,
,,,10.720000000000,  -0.13200,
,,,10.740000000000,  -0.12800,
,,,10.760000000000,   0.09600,
,,,10.780000000000,   0.10400,
,,,10.800000000000,   0.11200,
,,,10.820000000000,   0.11200,
,,,10.840000000000,   0.11600,
,,,10.860000000000,   0.11600,
,,,10.880000000000,   0.11200,
,,,10.900000000000,   0.11600,
,,,10.920000000000,   0.11600,
,,,10.940000000000,   0.11600,
,,,10.960000000000,   0.12000,
,,,10.980000000000,   0.11600,
,,,11.000000000000,   0.12000,
,,,11.020000000000,  -0.11600,
,,,11.040000000000,  -0.12400,
,,,11.060000000000,  -0.12400,
,,,11.080000000000,  -0.12400,
,,,11.100000000000,  -0.12800,
,,,11.120000000000,  -0.12800,
,,,11.140000000000,  -0.12800,
,,,11.160000000000,  -0.12800,
,,,11.180000000000,  -0.12800,
,,,11.200000000000,  -0.12800,
,,,11.220000000000,  -0.12800,
,,,11.240000000000,  -0.13200,
,,,11.260000000000,   0.09600,
,,,11.280000000000,   0.10400,
,,,11.300000000000,   0.11200,
,,,11.320000000000,   0.11200,
,,,11.340000000000,   0.11600,
,,,11.360000000000,   0.11600,
,,,11.380000000000,   0.11600,
,,,11.400000000000,   0.11600,
,,,11.420000000000,   0.12000,
,,,11.440000000000,   0.12000,
,,,11.460000000000,   0.12000,
,,,11.480000000000,   0.11600,
,,,11.500000000000,   0.11600,
,,,11.520000000000,  -0.11600,
,,,11.540000000000,  -0.12000,
,,,11.560000000000,  -0.12400,
,,,11.580000000000,  -0.12400,
,,,11.600000000000,  -0.12400,
,,,11.620000000000,  -0.12800,
,,,11.640000000000,  -0.12800,
,,,11.660000000000,  -0.12800,
,,,11.680000000000,  -0.12800,
,,,11.700000000000,  -0.13200,
,,,11.720000000000,  -0.13200,
,,,11.740000000000,  -0.13200,
,,,11.760000000000,   0.09600,
,,,11.780000000000,   0.10800,
,,,11.800000000000,   0.10800,
,,,11.820000000000,   0.11200,
,,,11.840000000000,   0.11200,
,,,11.860000000000,   0.11600,
,,,11.880000000000,   0.11600,
,,,11.900000000000,   0.11600,
,,,11.920000000000,   0.12000,
,,,11.940000000000,   0.12000,
,,,11.960000000000,   0.12000,
,,,11.980000000000,   0.11600,
,,,12.000000000000,   0.12000,
,,,12.020000000000,  -0.11600,
,,,12.040000000000,  -0.12000,
,,,12.060000000000,  -0.12400,
,,,12.080000000000,  -0.12800,
,,,12.100000000000,  -0.12800,
,,,12.120000000000,  -0.12400,
,,,12.140000000000,  -0.12800,
,,,12.160000000000,  -0.12800,
,,,12.180000000000,  -0.12800,
,,,12.200000000000,  -0.12800,
,,,12.220000000000,  -0.12800,
,,,12.240000000000,  -0.12800,
,,,12.260000000000,   0.09600,
,,,12.280000000000,   0.10800,
,,,12.300000000000,   0.10800,
,,,12.320000000000,   0.11200,
,,,12.340000000000,   0.11200,
,,,12.360000000000,   0.11600,
,,,12.380000000000,   0.11600,
,,,12.400000000000,   0.11200,
,,,12.420000000000,   0.12000,
,,,12.440000000000,   0.12000,
,,,12.460000000000,   0.12000,
,,,12.480000000000,   0.11600,
,,,12.500000000000,   0.12000,
,,,12.520000000000,  -0.11600,
,,,12.540000000000,  -0.12000,
,,,12.560000000000,  -0.12400,
,,,12.580000000000,  -0.12400,
,,,12.600000000000,  -0.12400,
,,,12.620000000000,  -0.12800,
,,,12.640000000000,  -0.12800,
,,,12.660000000000,  -0.13200,
,,,12.680000000000,  -0.12800,
,,,12.700000000000,  -0.12800,
,,,12.720000000000,  -0.13200,
,,,12.740000000000,  -0.12800,
,,,12.760000000000,   0.10000,
,,,12.780000000000,   0.10800,
,,,12.800000000000,   0.11200,
,,,12.820000000000,   0.11200,
,,,12.840000000000,   0.11600,
,,,12.860000000000,   0.11600,
,,,12.880000000000,   0.11600,
,,,12.900000000000,   0.11600,
,,,12.920000000000,   0.11600,
,,,12.940000000000,   0.12000,
,,,12.960000000000,   0.12000,
