data/interim/2_Hz/CNT_0,8/pre_02_2hz__5s_1/Cen_1.CSV

Record Length,2.500000e+03,,   0.000000000000,  -0.00300,
Sample Interval,2.000000e-02,,   0.020000000000,  -0.00440,
Trigger Point,0.000000000000e+00,,   0.040000000000,  -0.00440,
,,,   0.060000000000,  -0.00200,
,,,   0.080000000000,  -0.00260,
,,,   0.100000000000,  -0.00280,
Source,CH2,,   0.120000000000,  -0.00240,
Vertical Units,V,,   0.140000000000,  -0.00100,
Vertical Scale,5.000000e-03,,   0.160000000000,  -0.00220,
Vertical Offset,-7.600000e-03,,   0.180000000000,  -0.00380,
Horizontal Units,s,,   0.200000000000,   0.00120,
Horizontal Scale,5.000000e+00,,   0.220000000000,   0.00300,
Pt Fmt,Y,,   0.240000000000,   0.00160,
Yzero,0.000000e+00,,   0.260000000000,   0.00060,
Probe Atten,1.000000e+00,,   0.280000000000,   0.00240,
Model Number,TDS1012C-EDU,,   0.300000000000,   0.00380,
Serial Number,C010951,,   0.320000000000,   0.00200,
Firmware Version,FV:v25.04,,   0.340000000000,   0.00340,
,,,0.360000000000,   0.00200,
,,,0.380000000000,   0.00180,
,,,0.400000000000,   0.00520,
,,,0.420000000000,   0.00220,
,,,0.440000000000,  -0.00160,
,,,0.460000000000,  -0.00220,
,,,0.480000000000,  -0.00400,
,,,0.500000000000,  -0.00200,
,,,0.520000000000,  -0.00200,
,,,0.540000000000,  -0.00280,
,,,0.560000000000,  -0.00320,
,,,0.580000000000,  -0.00020,
,,,0.600000000000,  -0.00240,
,,,0.620000000000,  -0.00480,
,,,0.640000000000,  -0.00300,
,,,0.660000000000,  -0.00480,
,,,0.680000000000,  -0.00180,
,,,0.700000000000,   0.00040,
,,,0.720000000000,   0.00280,
,,,0.740000000000,   0.00320,
,,,0.760000000000,   0.00160,
,,,0.780000000000,   0.00180,
,,,0.800000000000,   0.00300,
,,,0.820000000000,   0.00180,
,,,0.840000000000,   0.00160,
,,,0.860000000000,   0.00420,
,,,0.880000000000,   0.00320,
,,,0.900000000000,   0.00240,
,,,0.920000000000,   0.00280,
,,,0.940000000000,  -0.00340,
,,,0.960000000000,  -0.00380,
,,,0.980000000000,  -0.00420,
,,,1.000000000000,  -0.00460,
,,,1.020000000000,  -0.00400,
,,,1.040000000000,  -0.00400,
,,,1.060000000000,  -0.00280,
,,,1.080000000000,  -0.00460,
,,,1.100000000000,  -0.00260,
,,,1.120000000000,  -0.00320,
,,,1.140000000000,  -0.00400,
,,,1.160000000000,  -0.00180,
,,,1.180000000000,  -0.00200,
,,,1.200000000000,   0.00140,
,,,1.220000000000,   0.00240,
,,,1.240000000000,   0.00040,
,,,1.260000000000,   0.00220,
,,,1.280000000000,   0.00260,
,,,1.300000000000,   0.00100,
,,,1.320000000000,  -0.00100,
,,,1.340000000000,   0.00200,
,,,1.360000000000,   0.00240,
,,,1.380000000000,   0.00080,
,,,1.400000000000,  -0.00100,
,,,1.420000000000,   0.00380,
,,,1.440000000000,  -0.00460,
,,,1.460000000000,   0.00160,
,,,1.480000000000,  -0.00260,
,,,1.500000000000,  -0.00180,
,,,1.520000000000,  -0.00340,
,,,1.540000000000,  -0.00500,
,,,1.560000000000,  -0.00420,
,,,1.580000000000,  -0.00400,
,,,1.600000000000,  -0.00640,
,,,1.620000000000,  -0.00340,
,,,1.640000000000,  -0.00360,
,,,1.660000000000,  -0.00320,
,,,1.680000000000,  -0.00240,
,,,1.700000000000,   0.00320,
,,,1.720000000000,   0.00140,
,,,1.740000000000,   0.00320,
,,,1.760000000000,   0.00240,
,,,1.780000000000,   0.00300,
,,,1.800000000000,   0.00420,
,,,1.820000000000,  -0.00020,
,,,1.840000000000,   0.00320,
,,,1.860000000000,  -0.00140,
,,,1.880000000000,   0.00620,
,,,1.900000000000,   0.00100,
,,,1.920000000000,   0.00180,
,,,1.940000000000,  -0.00340,
,,,1.960000000000,  -0.00260,
,,,1.980000000000,  -0.00020,
,,,2.000000000000,  -0.00100,
,,,2.020000000000,  -0.00240,
,,,2.040000000000,  -0.00400,
,,,2.060000000000,  -0.00340,
,,,2.080000000000,  -0.00320,
,,,2.100000000000,  -0.00420,
,,,2.120000000000,  -0.00740,
,,,2.140000000000,  -0.00380,
,,,2.160000000000,  -0.00240,
,,,2.180000000000,  -0.00140,
,,,2.200000000000,   0.00240,
,,,2.220000000000,   0.00140,
,,,2.240000000000,   0.00080,
,,,2.260000000000,   0.00240,
,,,2.280000000000,   0.00240,
,,,2.300000000000,   0.00140,
,,,2.320000000000,   0.00360,
,,,2.340000000000,   0.00480,
,,,2.360000000000,   0.00340,
,,,2.380000000000,   0.00120,
,,,2.400000000000,   0.00300,
,,,2.420000000000,   0.00480,
,,,2.440000000000,  -0.00360,
,,,2.460000000000,  -0.00260,
,,,2.480000000000,  -0.00240,
,,,2.500000000000,  -0.00240,
,,,2.520000000000,  -0.00240,
,,,2.540000000000,  -0.00160,
,,,2.560000000000,  -0.00260,
,,,2.580000000000,  -0.00460,
,,,2.600000000000,  -0.00280,
,,,2.620000000000,  -0.00120,
,,,2.640000000000,  -0.00260,
,,,2.660000000000,  -0.00140,
,,,2.680000000000,  -0.00100,
,,,2.700000000000,   0.00260,
,,,2.720000000000,   0.00340,
,,,2.740000000000,   0.00260,
,,,2.760000000000,   0.00160,
,,,2.780000000000,   0.00280,
,,,2.800000000000,   0.00240,
,,,2.820000000000,   0.00300,
,,,2.840000000000,   0.00060,
,,,2.860000000000,   0.00280,
,,,2.880000000000,   0.00180,
,,,2.900000000000,   0.00240,
,,,2.920000000000,   0.00380,
,,,2.940000000000,  -0.00300,
,,,2.960000000000,  -0.00300,
,,,2.980000000000,  -0.00240,
,,,3.000000000000,  -0.00280,
,,,3.020000000000,  -0.00580,
,,,3.040000000000,  -0.00260,
,,,3.060000000000,  -0.00280,
,,,3.080000000000,  -0.00240,
,,,3.100000000000,  -0.00180,
,,,3.120000000000,  -0.00300,
,,,3.140000000000,  -0.00120,
,,,3.160000000000,  -0.00240,
,,,3.180000000000,  -0.00480,
,,,3.200000000000,   0.00380,
,,,3.220000000000,   0.00280,
,,,3.240000000000,   0.00300,
,,,3.260000000000,   0.00260,
,,,3.280000000000,   0.00340,
,,,3.300000000000,   0.00300,
,,,3.320000000000,   0.00380,
,,,3.340000000000,   0.00540,
,,,3.360000000000,   0.00220,
,,,3.380000000000,   0.00220,
,,,3.400000000000,   0.00240,
,,,3.420000000000,   0.00280,
,,,3.440000000000,  -0.00280,
,,,3.460000000000,  -0.00520,
,,,3.480000000000,  -0.00500,
,,,3.500000000000,  -0.00220,
,,,3.520000000000,  -0.00320,
,,,3.540000000000,  -0.00380,
,,,3.560000000000,  -0.00160,
,,,3.580000000000,  -0.00620,
,,,3.600000000000,  -0.00360,
,,,3.620000000000,  -0.00240,
,,,3.640000000000,  -0.00320,
,,,3.660000000000,  -0.00300,
,,,3.680000000000,  -0.00360,
,,,3.700000000000,   0.00100,
,,,3.720000000000,   0.00160,
,,,3.740000000000,   0.00240,
,,,3.760000000000,   0.00300,
,,,3.780000000000,   0.00200,
,,,3.800000000000,   0.00320,
,,,3.820000000000,   0.00340,
,,,3.840000000000,   0.00260,
,,,3.860000000000,   0.00280,
,,,3.880000000000,   0.00240,
,,,3.900000000000,   0.00340,
,,,3.920000000000,   0.00280,
,,,3.940000000000,  -0.00400,
,,,3.960000000000,  -0.00180,
,,,3.980000000000,  -0.00540,
,,,4.000000000000,  -0.00500,
,,,4.020000000000,  -0.00540,
,,,4.040000000000,  -0.00280,
,,,4.060000000000,  -0.00300,
,,,4.080000000000,  -0.00380,
,,,4.100000000000,  -0.00160,
,,,4.120000000000,  -0.00260,
,,,4.140000000000,  -0.00420,
,,,4.160000000000,  -0.00360,
,,,4.180000000000,   0.00280,
,,,4.200000000000,   0.00280,
,,,4.220000000000,   0.00340,
,,,4.240000000000,   0.00240,
,,,4.260000000000,   0.00180,
,,,4.280000000000,   0.00300,
,,,4.300000000000,   0.00340,
,,,4.320000000000,   0.00140,
,,,4.340000000000,   0.00100,
,,,4.360000000000,   0.00220,
,,,4.380000000000,  -0.00080,
,,,4.400000000000,   0.00240,
,,,4.420000000000,   0.00300,
,,,4.440000000000,  -0.00420,
,,,4.460000000000,  -0.00360,
,,,4.480000000000,  -0.00380,
,,,4.500000000000,  -0.00380,
,,,4.520000000000,  -0.00440,
,,,4.540000000000,  -0.00060,
,,,4.560000000000,  -0.00460,
,,,4.580000000000,  -0.00360,
,,,4.600000000000,  -0.00480,
,,,4.620000000000,  -0.00140,
,,,4.640000000000,  -0.00400,
,,,4.660000000000,  -0.00180,
,,,4.680000000000,   0.00460,
,,,4.700000000000,   0.00080,
,,,4.720000000000,   0.00340,
,,,4.740000000000,   0.00160,
,,,4.760000000000,   0.00080,
,,,4.780000000000,   0.00260,
,,,4.800000000000,   0.00240,
,,,4.820000000000,   0.00320,
,,,4.840000000000,   0.00100,
,,,4.860000000000,   0.00180,
,,,4.880000000000,   0.00420,
,,,4.900000000000,   0.00120,
,,,4.920000000000,   0.00300,
,,,4.940000000000,  -0.00260,
,,,4.960000000000,  -0.00260,
,,,4.980000000000,  -0.00140,
,,,5.000000000000,  -0.00260,
,,,5.020000000000,  -0.00520,
,,,5.040000000000,  -0.00140,
,,,5.060000000000,  -0.00080,
,,,5.080000000000,  -0.00260,
,,,5.100000000000,   0.00000,
,,,5.120000000000,  -0.00300,
,,,5.140000000000,  -0.00320,
,,,5.160000000000,  -0.00220,
,,,5.180000000000,  -0.00080,
,,,5.200000000000,   0.00240,
,,,5.220000000000,  -0.00080,
,,,5.240000000000,   0.00220,
,,,5.260000000000,   0.00640,
,,,5.280000000000,   0.00220,
,,,5.300000000000,   0.00340,
,,,5.320000000000,   0.00280,
,,,5.340000000000,   0.00440,
,,,5.360000000000,   0.00260,
,,,5.380000000000,   0.00320,
,,,5.400000000000,   0.00260,
,,,5.420000000000,   0.00220,
,,,5.440000000000,  -0.00340,
,,,5.460000000000,  -0.00180,
,,,5.480000000000,  -0.00360,
,,,5.500000000000,  -0.00200,
,,,5.520000000000,  -0.00180,
,,,5.540000000000,  -0.00380,
,,,5.560000000000,  -0.00160,
,,,5.580000000000,  -0.00220,
,,,5.600000000000,  -0.00220,
,,,5.620000000000,  -0.00320,
,,,5.640000000000,  -0.00160,
,,,5.660000000000,  -0.00200,
,,,5.680000000000,  -0.00120,
,,,5.700000000000,   0.00240,
,,,5.720000000000,   0.00280,
,,,5.740000000000,   0.00100,
,,,5.760000000000,   0.00180,
,,,5.780000000000,   0.00000,
,,,5.800000000000,   0.00160,
,,,5.820000000000,   0.00280,
,,,5.840000000000,   0.00340,
,,,5.860000000000,   0.00160,
,,,5.880000000000,   0.00240,
,,,5.900000000000,   0.00260,
,,,5.920000000000,   0.00380,
,,,5.940000000000,  -0.00500,
,,,5.960000000000,  -0.00340,
,,,5.980000000000,  -0.00260,
,,,6.000000000000,  -0.00160,
,,,6.020000000000,  -0.00300,
,,,6.040000000000,  -0.00100,
,,,6.060000000000,  -0.00420,
,,,6.080000000000,  -0.00180,
,,,6.100000000000,  -0.00440,
,,,6.120000000000,  -0.00180,
,,,6.140000000000,  -0.00320,
,,,6.160000000000,  -0.00340,
,,,6.180000000000,   0.00240,
,,,6.200000000000,   0.00500,
,,,6.220000000000,   0.00300,
,,,6.240000000000,   0.00200,
,,,6.260000000000,   0.00280,
,,,6.280000000000,   0.00440,
,,,6.300000000000,   0.00180,
,,,6.320000000000,   0.00100,
,,,6.340000000000,   0.00200,
,,,6.360000000000,   0.00440,
,,,6.380000000000,   0.00120,
,,,6.400000000000,   0.00540,
,,,6.420000000000,   0.00180,
,,,6.440000000000,  -0.00180,
,,,6.460000000000,  -0.00300,
,,,6.480000000000,  -0.00160,
,,,6.500000000000,  -0.00220,
,,,6.520000000000,  -0.00240,
,,,6.540000000000,  -0.00320,
,,,6.560000000000,  -0.00360,
,,,6.580000000000,  -0.00420,
,,,6.600000000000,  -0.00740,
,,,6.620000000000,  -0.00180,
,,,6.640000000000,  -0.00260,
,,,6.660000000000,  -0.00200,
,,,6.680000000000,   0.00080,
,,,6.700000000000,   0.00280,
,,,6.720000000000,   0.00220,
,,,6.740000000000,   0.00240,
,,,6.760000000000,   0.00420,
,,,6.780000000000,   0.00160,
,,,6.800000000000,   0.00280,
,,,6.820000000000,   0.00220,
,,,6.840000000000,   0.00200,
,,,6.860000000000,   0.00380,
,,,6.880000000000,   0.00240,
,,,6.900000000000,   0.00180,
,,,6.920000000000,   0.00380,
,,,6.940000000000,  -0.00120,
,,,6.960000000000,  -0.00080,
,,,6.980000000000,  -0.00380,
,,,7.000000000000,  -0.00240,
,,,7.020000000000,  -0.00440,
,,,7.040000000000,  -0.00380,
,,,7.060000000000,  -0.00300,
,,,7.080000000000,  -0.00320,
,,,7.100000000000,  -0.00220,
,,,7.120000000000,  -0.00440,
,,,7.140000000000,  -0.00300,
,,,7.160000000000,  -0.00160,
,,,7.180000000000,   0.00360,
,,,7.200000000000,   0.00200,
,,,7.220000000000,   0.00280,
,,,7.240000000000,   0.00160,
,,,7.260000000000,   0.00300,
,,,7.280000000000,   0.00240,
,,,7.300000000000,   0.00120,
,,,7.320000000000,   0.00180,
,,,7.340000000000,   0.00320,
,,,7.360000000000,  -0.00100,
,,,7.380000000000,   0.00420,
,,,7.400000000000,   0.00380,
,,,7.420000000000,   0.00260,
,,,7.440000000000,  -0.00260,
,,,7.460000000000,  -0.00140,
,,,7.480000000000,  -0.00240,
,,,7.500000000000,  -0.00120,
,,,7.520000000000,  -0.00400,
,,,7.540000000000,  -0.00240,
,,,7.560000000000,  -0.00440,
,,,7.580000000000,  -0.00640,
,,,7.600000000000,  -0.00240,
,,,7.620000000000,  -0.00020,
,,,7.640000000000,  -0.00640,
,,,7.660000000000,  -0.00240,
,,,7.680000000000,   0.00440,
,,,7.700000000000,   0.00140,
,,,7.720000000000,   0.00080,
,,,7.740000000000,   0.00180,
,,,7.760000000000,   0.00500,
,,,7.780000000000,   0.00140,
,,,7.800000000000,  -0.00100,
,,,7.820000000000,   0.00320,
,,,7.840000000000,   0.00100,
,,,7.860000000000,   0.00320,
,,,7.880000000000,   0.00200,
,,,7.900000000000,   0.00260,
,,,7.920000000000,  -0.00440,
,,,7.940000000000,  -0.00480,
,,,7.960000000000,  -0.00360,
,,,7.980000000000,  -0.00160,
,,,8.000000000000,  -0.00100,
,,,8.020000000000,  -0.00240,
,,,8.040000000000,  -0.00080,
,,,8.060000000000,  -0.00380,
,,,8.080000000000,  -0.00020,
,,,8.100000000000,  -0.00280,
,,,8.120000000000,  -0.00220,
,,,8.140000000000,  -0.00160,
,,,8.160000000000,  -0.00500,
,,,8.180000000000,   0.00200,
,,,8.200000000000,   0.00440,
,,,8.220000000000,   0.00280,
,,,8.240000000000,   0.00220,
,,,8.260000000000,   0.00440,
,,,8.280000000000,   0.00220,
,,,8.300000000000,   0.00480,
,,,8.320000000000,   0.00020,
,,,8.340000000000,   0.00160,
,,,8.360000000000,   0.00220,
,,,8.380000000000,   0.00400,
,,,8.400000000000,   0.00340,
,,,8.420000000000,  -0.00480,
,,,8.440000000000,  -0.00500,
,,,8.460000000000,  -0.00300,
,,,8.480000000000,  -0.00380,
,,,8.500000000000,  -0.00160,
,,,8.520000000000,  -0.00440,
,,,8.540000000000,  -0.00380,
,,,8.560000000000,  -0.00340,
,,,8.580000000000,  -0.00180,
,,,8.600000000000,  -0.00280,
,,,8.620000000000,  -0.00380,
,,,8.640000000000,  -0.00200,
,,,8.660000000000,  -0.00180,
,,,8.680000000000,   0.00280,
,,,8.700000000000,   0.00200,
,,,8.720000000000,   0.00200,
,,,8.740000000000,   0.00140,
,,,8.760000000000,   0.00380,
,,,8.780000000000,   0.00160,
,,,8.800000000000,   0.00420,
,,,8.820000000000,   0.00060,
,,,8.840000000000,   0.00260,
,,,8.860000000000,   0.00360,
,,,8.880000000000,   0.00240,
,,,8.900000000000,   0.00280,
,,,8.920000000000,  -0.00360,
,,,8.940000000000,  -0.00340,
,,,8.960000000000,  -0.00320,
,,,8.980000000000,  -0.00240,
,,,9.000000000000,  -0.00340,
,,,9.020000000000,  -0.00520,
,,,9.040000000000,  -0.00160,
,,,9.060000000000,  -0.00380,
,,,9.080000000000,  -0.00140,
,,,9.100000000000,  -0.00380,
,,,9.120000000000,  -0.00320,
,,,9.140000000000,  -0.00140,
,,,9.160000000000,  -0.00260,
,,,9.180000000000,   0.00240,
,,,9.200000000000,   0.00160,
,,,9.220000000000,   0.00420,
,,,9.240000000000,  -0.00040,
,,,9.260000000000,  -0.00020,
,,,9.280000000000,   0.00160,
,,,9.300000000000,   0.00100,
,,,9.320000000000,   0.00440,
,,,9.340000000000,   0.00220,
,,,9.360000000000,   0.00360,
,,,9.380000000000,   0.00040,
,,,9.400000000000,   0.00300,
,,,9.420000000000,  -0.00260,
,,,9.440000000000,  -0.00400,
,,,9.460000000000,  -0.00300,
,,,9.480000000000,  -0.00320,
,,,9.500000000000,  -0.00260,
,,,9.520000000000,  -0.00300,
,,,9.540000000000,  -0.00380,
,,,9.560000000000,  -0.00320,
,,,9.580000000000,  -0.00360,
,,,9.600000000000,  -0.00160,
,,,9.620000000000,  -0.00240,
,,,9.640000000000,  -0.00360,
,,,9.660000000000,  -0.00200,
,,,9.680000000000,   0.00300,
,,,9.700000000000,   0.00300,
,,,9.720000000000,   0.00420,
,,,9.740000000000,   0.00160,
,,,9.760000000000,   0.00020,
,,,9.780000000000,   0.00180,
,,,9.800000000000,   0.00220,
,,,9.820000000000,   0.00220,
,,,9.840000000000,   0.00260,
,,,9.860000000000,   0.00300,
,,,9.880000000000,  -0.00300,
,,,9.900000000000,   0.00300,
,,,9.920000000000,  -0.00500,
,,,9.940000000000,  -0.00300,
,,,9.960000000000,  -0.00240,
,,,9.980000000000,  -0.00340,
,,,10.000000000000,  -0.00140,
,,,10.020000000000,  -0.00300,
,,,10.040000000000,  -0.00360,
,,,10.060000000000,  -0.00140,
,,,10.080000000000,  -0.00220,
,,,10.100000000000,  -0.00120,
,,,10.120000000000,  -0.00140,
,,,10.140000000000,  -0.00680,
,,,10.160000000000,  -0.00420,
,,,10.180000000000,   0.00040,
,,,10.200000000000,   0.00160,
,,,10.220000000000,   0.00440,
,,,10.240000000000,  -0.00080,
,,,10.260000000000,   0.00280,
,,,10.280000000000,   0.00400,
,,,10.300000000000,   0.00300,
,,,10.320000000000,   0.00140,
,,,10.340000000000,   0.00160,
,,,10.360000000000,   0.00300,
,,,10.380000000000,   0.00140,
,,,10.400000000000,   0.00220,
,,,10.420000000000,  -0.00200,
,,,10.440000000000,  -0.00340,
,,,10.460000000000,  -0.00280,
,,,10.480000000000,  -0.00280,
,,,10.500000000000,  -0.00380,
,,,10.520000000000,  -0.00480,
,,,10.540000000000,  -0.00500,
,,,10.560000000000,  -0.00460,
,,,10.580000000000,  -0.00080,
,,,10.600000000000,  -0.00200,
,,,10.620000000000,  -0.00260,
,,,10.640000000000,  -0.00280,
,,,10.660000000000,  -0.00320,
,,,10.680000000000,   0.00200,
,,,10.700000000000,   0.00080,
,,,10.720000000000,   0.00080,
,,,10.740000000000,   0.00300,
,,,10.760000000000,   0.00180,
,,,10.780000000000,  -0.00160,
,,,10.800000000000,   0.00140,
,,,10.820000000000,   0.00440,
,,,10.840000000000,   0.00320,
,,,10.860000000000,   0.00180,
,,,10.880000000000,   0.00160,
,,,10.900000000000,   0.00080,
,,,10.920000000000,  -0.00200,
,,,10.940000000000,  -0.00400,
,,,10.960000000000,  -0.00240,
,,,10.980000000000,  -0.00280,
,,,11.000000000000,  -0.00020,
,,,11.020000000000,  -0.00300,
,,,11.040000000000,  -0.00240,
,,,11.060000000000,  -0.00240,
,,,11.080000000000,  -0.00180,
,,,11.100000000000,  -0.00340,
,,,11.120000000000,  -0.00240,
,,,11.140000000000,  -0.00460,
,,,11.160000000000,  -0.00420,
,,,11.180000000000,   0.00300,
,,,11.200000000000,   0.00280,
,,,11.220000000000,   0.00240,
,,,11.240000000000,   0.00240,
,,,11.260000000000,   0.00040,
,,,11.280000000000,   0.00040,
,,,11.300000000000,   0.00020,
,,,11.320000000000,   0.00160,
,,,11.340000000000,   0.00220,
,,,11.360000000000,   0.00360,
,,,11.380000000000,   0.00420,
,,,11.400000000000,   0.00200,
,,,11.420000000000,  -0.00120,
,,,11.440000000000,  -0.00180,
,,,11.460000000000,  -0.00420,
,,,11.480000000000,  -0.00060,
,,,11.500000000000,  -0.00240,
,,,11.520000000000,  -0.00240,
,,,11.540000000000,  -0.00140,
,,,11.560000000000,  -0.00340,
,,,11.580000000000,  -0.00200,
,,,11.600000000000,  -0.00340,
,,,11.620000000000,  -0.00100,
,,,11.640000000000,  -0.00200,
,,,11.660000000000,  -0.00280,
,,,11.680000000000,   0.00160,
,,,11.700000000000,   0.00180,
,,,11.720000000000,   0.00300,
,,,11.740000000000,   0.00320,
,,,11.760000000000,   0.00160,
,,,11.780000000000,   0.00160,
,,,11.800000000000,   0.00360,
,,,11.820000000000,   0.00200,
,,,11.840000000000,   0.00340,
,,,11.860000000000,   0.00100,
,,,11.880000000000,   0.00240,
,,,11.900000000000,   0.00060,
,,,11.920000000000,  -0.00020,
,,,11.940000000000,  -0.00120,
,,,11.960000000000,  -0.00500,
,,,11.980000000000,  -0.00200,
,,,12.000000000000,  -0.00320,
,,,12.020000000000,  -0.00340,
,,,12.040000000000,  -0.00320,
,,,12.060000000000,  -0.00120,
,,,12.080000000000,  -0.00300,
,,,12.100000000000,  -0.00320,
,,,12.120000000000,  -0.00580,
,,,12.140000000000,  -0.00200,
,,,12.160000000000,   0.00000,
,,,12.180000000000,   0.00320,
,,,12.200000000000,   0.00200,
,,,12.220000000000,   0.00060,
,,,12.240000000000,   0.00120,
,,,12.260000000000,   0.00180,
,,,12.280000000000,   0.00180,
,,,12.300000000000,   0.00060,
,,,12.320000000000,   0.00160,
,,,12.340000000000,   0.00320,
,,,12.360000000000,   0.00400,
,,,12.380000000000,   0.00020,
,,,12.400000000000,   0.00080,
,,,12.420000000000,  -0.00160,
,,,12.440000000000,  -0.00520,
,,,12.460000000000,  -0.00400,
,,,12.480000000000,  -0.00200,
,,,12.500000000000,  -0.00380,
,,,12.520000000000,  -0.00020,
,,,12.540000000000,  -0.00140,
,,,12.560000000000,  -0.00380,
,,,12.580000000000,  -0.00360,
,,,12.600000000000,  -0.00100,
,,,12.620000000000,  -0.00180,
,,,12.640000000000,  -0.00480,
,,,12.660000000000,   0.00180,
,,,12.680000000000,   0.00240,
,,,12.700000000000,   0.00560,
,,,12.720000000000,   0.00280,
,,,12.740000000000,   0.00080,
,,,12.760000000000,   0.00140,
,,,12.780000000000,   0.00300,
,,,12.800000000000,  -0.00020,
,,,12.820000000000,   0.00200,
,,,12.840000000000,   0.00240,
,,,12.860000000000,   0.00160,
,,,12.880000000000,   0.00140,
,,,12.900000000000,   0.00180,
,,,12.920000000000,  -0.00240,
,,,12.940000000000,  -0.00360,
,,,12.960000000000,  -0.00160,
