data/raw/1_Hz_6/CNT_0,8/pro_08_1hz__5s_1/Cen/ALL0017/F0017CH1.CSV

Record Length,2.500000e+03,,   0.000000000000,   0.27200,
Sample Interval,2.000000e-02,,   0.020000000000,   0.27200,
Trigger Point,0.000000000000e+00,,   0.040000000000,   0.27200,
,,,   0.060000000000,   0.25200,
,,,   0.080000000000,   0.27600,
,,,   0.100000000000,   0.27200,
Source,CH1,,   0.120000000000,   0.27200,
Vertical Units,V,,   0.140000000000,   0.27200,
Vertical Scale,1.000000e-01,,   0.160000000000,   0.27200,
Vertical Offset,0.000000e+00,,   0.180000000000,   0.27600,
Horizontal Units,s,,   0.200000000000,   0.27600,
Horizontal Scale,5.000000e+00,,   0.220000000000,  -0.26000,
Pt Fmt,Y,,   0.240000000000,  -0.25600,
Yzero,0.000000e+00,,   0.260000000000,  -0.26400,
Probe Atten,1.000000e+00,,   0.280000000000,  -0.26800,
Model Number,TDS1012C-EDU,,   0.300000000000,  -0.26400,
Serial Number,C010951,,   0.320000000000,  -0.26800,
Firmware Version,FV:v25.04,,   0.340000000000,  -0.27200,
,,,0.360000000000,  -0.26400,
,,,0.380000000000,  -0.26800,
,,,0.400000000000,  -0.27200,
,,,0.420000000000,  -0.27600,
,,,0.440000000000,  -0.26800,
,,,0.460000000000,  -0.27200,
,,,0.480000000000,  -0.26800,
,,,0.500000000000,  -0.26800,
,,,0.520000000000,  -0.26800,
,,,0.540000000000,  -0.26800,
,,,0.560000000000,  -0.26800,
,,,0.580000000000,  -0.26800,
,,,0.600000000000,  -0.26800,
,,,0.620000000000,  -0.27200,
,,,0.640000000000,  -0.26400,
,,,0.660000000000,  -0.26800,
,,,0.680000000000,  -0.26800,
,,,0.700000000000,  -0.26800,
,,,0.720000000000,   0.26800,
,,,0.740000000000,   0.27200,
,,,0.760000000000,   0.27200,
,,,0.780000000000,   0.27600,
,,,0.800000000000,   0.27200,
,,,0.820000000000,   0.27200,
,,,0.840000000000,   0.26400,
,,,0.860000000000,   0.27200,
,,,0.880000000000,   0.26800,
,,,0.900000000000,   0.26800,
,,,0.920000000000,   0.27200,
,,,0.940000000000,   0.27200,
,,,0.960000000000,   0.27200,
,,,0.980000000000,   0.27200,
,,,1.000000000000,   0.27200,
,,,1.020000000000,   0.27600,
,,,1.040000000000,   0.26800,
,,,1.060000000000,   0.27200,
,,,1.080000000000,   0.27200,
,,,1.100000000000,   0.27600,
,,,1.120000000000,   0.27600,
,,,1.140000000000,   0.27200,
,,,1.160000000000,   0.28000,
,,,1.180000000000,   0.27200,
,,,1.200000000000,   0.27600,
,,,1.220000000000,  -0.26000,
,,,1.240000000000,  -0.26400,
,,,1.260000000000,  -0.26400,
,,,1.280000000000,  -0.26800,
,,,1.300000000000,  -0.26400,
,,,1.320000000000,  -0.26400,
,,,1.340000000000,  -0.26800,
,,,1.360000000000,  -0.27200,
,,,1.380000000000,  -0.27200,
,,,1.400000000000,  -0.26400,
,,,1.420000000000,  -0.26400,
,,,1.440000000000,  -0.26400,
,,,1.460000000000,  -0.27600,
,,,1.480000000000,  -0.26400,
,,,1.500000000000,  -0.26800,
,,,1.520000000000,  -0.26400,
,,,1.540000000000,  -0.26400,
,,,1.560000000000,  -0.26800,
,,,1.580000000000,  -0.27200,
,,,1.600000000000,  -0.26400,
,,,1.620000000000,  -0.26800,
,,,1.640000000000,  -0.27600,
,,,1.660000000000,  -0.27200,
,,,1.680000000000,  -0.27200,
,,,1.700000000000,  -0.26800,
,,,1.720000000000,   0.26800,
,,,1.740000000000,   0.26400,
,,,1.760000000000,   0.26800,
,,,1.780000000000,   0.27200,
,,,1.800000000000,   0.26400,
,,,1.820000000000,   0.27200,
,,,1.840000000000,   0.27600,
,,,1.860000000000,   0.26800,
,,,1.880000000000,   0.27200,
,,,1.900000000000,   0.27200,
,,,1.920000000000,   0.27200,
,,,1.940000000000,   0.27600,
,,,1.960000000000,   0.27200,
,,,1.980000000000,   0.27200,
,,,2.000000000000,   0.27200,
,,,2.020000000000,   0.27600,
,,,2.040000000000,   0.27200,
,,,2.060000000000,   0.27200,
,,,2.080000000000,   0.27600,
,,,2.100000000000,   0.27200,
,,,2.120000000000,   0.27600,
,,,2.140000000000,   0.27200,
,,,2.160000000000,   0.27200,
,,,2.180000000000,   0.27200,
,,,2.200000000000,  -0.24000,
,,,2.220000000000,  -0.26400,
,,,2.240000000000,  -0.26400,
,,,2.260000000000,  -0.26400,
,,,2.280000000000,  -0.26400,
,,,2.300000000000,  -0.26400,
,,,2.320000000000,  -0.26800,
,,,2.340000000000,  -0.26800,
,,,2.360000000000,  -0.26800,
,,,2.380000000000,  -0.26800,
,,,2.400000000000,  -0.27200,
,,,2.420000000000,  -0.26400,
,,,2.440000000000,  -0.26800,
,,,2.460000000000,  -0.26800,
,,,2.480000000000,  -0.26800,
,,,2.500000000000,  -0.26800,
,,,2.520000000000,  -0.26400,
,,,2.540000000000,  -0.26400,
,,,2.560000000000,  -0.26800,
,,,2.580000000000,  -0.27200,
,,,2.600000000000,  -0.27200,
,,,2.620000000000,  -0.26800,
,,,2.640000000000,  -0.26800,
,,,2.660000000000,  -0.26800,
,,,2.680000000000,  -0.26800,
,,,2.700000000000,   0.25200,
,,,2.720000000000,   0.26400,
,,,2.740000000000,   0.26800,
,,,2.760000000000,   0.27200,
,,,2.780000000000,   0.27200,
,,,2.800000000000,   0.28000,
,,,2.820000000000,   0.26800,
,,,2.840000000000,   0.27200,
,,,2.860000000000,   0.27200,
,,,2.880000000000,   0.27200,
,,,2.900000000000,   0.27200,
,,,2.920000000000,   0.26800,
,,,2.940000000000,   0.27200,
,,,2.960000000000,   0.26400,
,,,2.980000000000,   0.26800,
,,,3.000000000000,   0.27600,
,,,3.020000000000,   0.26400,
,,,3.040000000000,   0.27200,
,,,3.060000000000,   0.27200,
,,,3.080000000000,   0.26800,
,,,3.100000000000,   0.29200,
,,,3.120000000000,   0.27600,
,,,3.140000000000,   0.27600,
,,,3.160000000000,   0.27200,
,,,3.180000000000,   0.27600,
,,,3.200000000000,  -0.25200,
,,,3.220000000000,  -0.26000,
,,,3.240000000000,  -0.26000,
,,,3.260000000000,  -0.26800,
,,,3.280000000000,  -0.26000,
,,,3.300000000000,  -0.26800,
,,,3.320000000000,  -0.26800,
,,,3.340000000000,  -0.26800,
,,,3.360000000000,  -0.27200,
,,,3.380000000000,  -0.26400,
,,,3.400000000000,  -0.26400,
,,,3.420000000000,  -0.26800,
,,,3.440000000000,  -0.27600,
,,,3.460000000000,  -0.27200,
,,,3.480000000000,  -0.26800,
,,,3.500000000000,  -0.26800,
,,,3.520000000000,  -0.26800,
,,,3.540000000000,  -0.26800,
,,,3.560000000000,  -0.27200,
,,,3.580000000000,  -0.26800,
,,,3.600000000000,  -0.26000,
,,,3.620000000000,  -0.27200,
,,,3.640000000000,  -0.26800,
,,,3.660000000000,  -0.26800,
,,,3.680000000000,  -0.26800,
,,,3.700000000000,   0.26000,
,,,3.720000000000,   0.26800,
,,,3.740000000000,   0.26800,
,,,3.760000000000,   0.27200,
,,,3.780000000000,   0.26800,
,,,3.800000000000,   0.27200,
,,,3.820000000000,   0.27600,
,,,3.840000000000,   0.27200,
,,,3.860000000000,   0.26800,
,,,3.880000000000,   0.26800,
,,,3.900000000000,   0.27200,
,,,3.920000000000,   0.27600,
,,,3.940000000000,   0.26800,
,,,3.960000000000,   0.25600,
,,,3.980000000000,   0.27200,
,,,4.000000000000,   0.28000,
,,,4.020000000000,   0.27600,
,,,4.040000000000,   0.27200,
,,,4.060000000000,   0.26800,
,,,4.080000000000,   0.27200,
,,,4.100000000000,   0.27200,
,,,4.120000000000,   0.27200,
,,,4.140000000000,   0.28400,
,,,4.160000000000,   0.27600,
,,,4.180000000000,   0.27200,
,,,4.200000000000,  -0.25600,
,,,4.220000000000,  -0.26400,
,,,4.240000000000,  -0.26400,
,,,4.260000000000,  -0.26800,
,,,4.280000000000,  -0.27600,
,,,4.300000000000,  -0.27600,
,,,4.320000000000,  -0.26800,
,,,4.340000000000,  -0.27200,
,,,4.360000000000,  -0.26400,
,,,4.380000000000,  -0.26000,
,,,4.400000000000,  -0.26800,
,,,4.420000000000,  -0.27200,
,,,4.440000000000,  -0.26400,
,,,4.460000000000,  -0.26800,
,,,4.480000000000,  -0.26800,
,,,4.500000000000,  -0.26800,
,,,4.520000000000,  -0.26400,
,,,4.540000000000,  -0.27200,
,,,4.560000000000,  -0.27200,
,,,4.580000000000,  -0.26400,
,,,4.600000000000,  -0.27200,
,,,4.620000000000,  -0.26800,
,,,4.640000000000,  -0.26800,
,,,4.660000000000,  -0.26800,
,,,4.680000000000,  -0.27200,
,,,4.700000000000,   0.26000,
,,,4.720000000000,   0.26800,
,,,4.740000000000,   0.26800,
,,,4.760000000000,   0.26800,
,,,4.780000000000,   0.27200,
,,,4.800000000000,   0.27200,
,,,4.820000000000,   0.27200,
,,,4.840000000000,   0.26800,
,,,4.860000000000,   0.26800,
,,,4.880000000000,   0.27200,
,,,4.900000000000,   0.27600,
,,,4.920000000000,   0.27200,
,,,4.940000000000,   0.26800,
,,,4.960000000000,   0.27200,
,,,4.980000000000,   0.27200,
,,,5.000000000000,   0.27600,
,,,5.020000000000,   0.27200,
,,,5.040000000000,   0.27200,
,,,5.060000000000,   0.27200,
,,,5.080000000000,   0.27200,
,,,5.100000000000,   0.27200,
,,,5.120000000000,   0.26000,
,,,5.140000000000,   0.27600,
,,,5.160000000000,   0.27200,
,,,5.180000000000,   0.27200,
,,,5.200000000000,  -0.25600,
,,,5.220000000000,  -0.26400,
,,,5.240000000000,  -0.26400,
,,,5.260000000000,  -0.26800,
,,,5.280000000000,  -0.28000,
,,,5.300000000000,  -0.26800,
,,,5.320000000000,  -0.26400,
,,,5.340000000000,  -0.26800,
,,,5.360000000000,  -0.27600,
,,,5.380000000000,  -0.26400,
,,,5.400000000000,  -0.26800,
,,,5.420000000000,  -0.27200,
,,,5.440000000000,  -0.27200,
,,,5.460000000000,  -0.26800,
,,,5.480000000000,  -0.26400,
,,,5.500000000000,  -0.27200,
,,,5.520000000000,  -0.26800,
,,,5.540000000000,  -0.26400,
,,,5.560000000000,  -0.26400,
,,,5.580000000000,  -0.26800,
,,,5.600000000000,  -0.27600,
,,,5.620000000000,  -0.27200,
,,,5.640000000000,  -0.26800,
,,,5.660000000000,  -0.27600,
,,,5.680000000000,  -0.27200,
,,,5.700000000000,   0.26800,
,,,5.720000000000,   0.27200,
,,,5.740000000000,   0.27200,
,,,5.760000000000,   0.26800,
,,,5.780000000000,   0.26800,
,,,5.800000000000,   0.27200,
,,,5.820000000000,   0.27200,
,,,5.840000000000,   0.27200,
,,,5.860000000000,   0.27200,
,,,5.880000000000,   0.27200,
,,,5.900000000000,   0.27200,
,,,5.920000000000,   0.27200,
,,,5.940000000000,   0.27200,
,,,5.960000000000,   0.27200,
,,,5.980000000000,   0.27200,
,,,6.000000000000,   0.27200,
,,,6.020000000000,   0.26000,
,,,6.040000000000,   0.27600,
,,,6.060000000000,   0.27200,
,,,6.080000000000,   0.27200,
,,,6.100000000000,   0.28000,
,,,6.120000000000,   0.27200,
,,,6.140000000000,   0.27200,
,,,6.160000000000,   0.27200,
,,,6.180000000000,   0.27200,
,,,6.200000000000,  -0.25600,
,,,6.220000000000,  -0.26000,
,,,6.240000000000,  -0.26400,
,,,6.260000000000,  -0.27200,
,,,6.280000000000,  -0.26400,
,,,6.300000000000,  -0.26400,
,,,6.320000000000,  -0.26400,
,,,6.340000000000,  -0.26000,
,,,6.360000000000,  -0.27200,
,,,6.380000000000,  -0.27200,
,,,6.400000000000,  -0.26800,
,,,6.420000000000,  -0.26800,
,,,6.440000000000,  -0.26800,
,,,6.460000000000,  -0.26800,
,,,6.480000000000,  -0.26800,
,,,6.500000000000,  -0.26800,
,,,6.520000000000,  -0.26800,
,,,6.540000000000,  -0.27600,
,,,6.560000000000,  -0.26800,
,,,6.580000000000,  -0.26800,
,,,6.600000000000,  -0.26800,
,,,6.620000000000,  -0.26800,
,,,6.640000000000,  -0.26800,
,,,6.660000000000,  -0.26400,
,,,6.680000000000,   0.23600,
,,,6.700000000000,   0.26800,
,,,6.720000000000,   0.26800,
,,,6.740000000000,   0.26800,
,,,6.760000000000,   0.26800,
,,,6.780000000000,   0.27200,
,,,6.800000000000,   0.27200,
,,,6.820000000000,   0.27200,
,,,6.840000000000,   0.26800,
,,,6.860000000000,   0.27200,
,,,6.880000000000,   0.27200,
,,,6.900000000000,   0.27200,
,,,6.920000000000,   0.27200,
,,,6.940000000000,   0.27200,
,,,6.960000000000,   0.27200,
,,,6.980000000000,   0.27600,
,,,7.000000000000,   0.27200,
,,,7.020000000000,   0.27200,
,,,7.040000000000,   0.27600,
,,,7.060000000000,   0.27600,
,,,7.080000000000,   0.28000,
,,,7.100000000000,   0.27200,
,,,7.120000000000,   0.27200,
,,,7.140000000000,   0.27600,
,,,7.160000000000,   0.26800,
,,,7.180000000000,  -0.24800,
,,,7.200000000000,  -0.26000,
,,,7.220000000000,  -0.26800,
,,,7.240000000000,  -0.26800,
,,,7.260000000000,  -0.26800,
,,,7.280000000000,  -0.26400,
,,,7.300000000000,  -0.27200,
,,,7.320000000000,  -0.26400,
,,,7.340000000000,  -0.26800,
,,,7.360000000000,  -0.27600,
,,,7.380000000000,  -0.27200,
,,,7.400000000000,  -0.26800,
,,,7.420000000000,  -0.26400,
,,,7.440000000000,  -0.26800,
,,,7.460000000000,  -0.26800,
,,,7.480000000000,  -0.26800,
,,,7.500000000000,  -0.27200,
,,,7.520000000000,  -0.26800,
,,,7.540000000000,  -0.27200,
,,,7.560000000000,  -0.26800,
,,,7.580000000000,  -0.26800,
,,,7.600000000000,  -0.27200,
,,,7.620000000000,  -0.26800,
,,,7.640000000000,  -0.26800,
,,,7.660000000000,  -0.26400,
,,,7.680000000000,   0.25200,
,,,7.700000000000,   0.26800,
,,,7.720000000000,   0.26800,
,,,7.740000000000,   0.26800,
,,,7.760000000000,   0.27200,
,,,7.780000000000,   0.26800,
,,,7.800000000000,   0.26400,
,,,7.820000000000,   0.27200,
,,,7.840000000000,   0.27200,
,,,7.860000000000,   0.27200,
,,,7.880000000000,   0.27200,
,,,7.900000000000,   0.26800,
,,,7.920000000000,   0.27200,
,,,7.940000000000,   0.27200,
,,,7.960000000000,   0.27200,
,,,7.980000000000,   0.27600,
,,,8.000000000000,   0.26000,
,,,8.020000000000,   0.27600,
,,,8.040000000000,   0.26800,
,,,8.060000000000,   0.27200,
,,,8.080000000000,   0.26800,
,,,8.100000000000,   0.27600,
,,,8.120000000000,   0.27200,
,,,8.140000000000,   0.26800,
,,,8.160000000000,   0.27200,
,,,8.180000000000,  -0.25600,
,,,8.200000000000,  -0.26400,
,,,8.220000000000,  -0.26400,
,,,8.240000000000,  -0.26800,
,,,8.260000000000,  -0.27200,
,,,8.280000000000,  -0.26400,
,,,8.300000000000,  -0.26800,
,,,8.320000000000,  -0.26800,
,,,8.340000000000,  -0.26800,
,,,8.360000000000,  -0.26000,
,,,8.380000000000,  -0.26800,
,,,8.400000000000,  -0.26800,
,,,8.420000000000,  -0.27200,
,,,8.440000000000,  -0.27200,
,,,8.460000000000,  -0.26800,
,,,8.480000000000,  -0.27200,
,,,8.500000000000,  -0.26800,
,,,8.520000000000,  -0.26400,
,,,8.540000000000,  -0.27200,
,,,8.560000000000,  -0.26400,
,,,8.580000000000,  -0.26800,
,,,8.600000000000,  -0.26800,
,,,8.620000000000,  -0.27200,
,,,8.640000000000,  -0.26000,
,,,8.660000000000,  -0.26800,
,,,8.680000000000,   0.25600,
,,,8.700000000000,   0.27200,
,,,8.720000000000,   0.26800,
,,,8.740000000000,   0.27200,
,,,8.760000000000,   0.26800,
,,,8.780000000000,   0.26800,
,,,8.800000000000,   0.27600,
,,,8.820000000000,   0.27200,
,,,8.840000000000,   0.27200,
,,,8.860000000000,   0.27200,
,,,8.880000000000,   0.27200,
,,,8.900000000000,   0.27600,
,,,8.920000000000,   0.27200,
,,,8.940000000000,   0.27600,
,,,8.960000000000,   0.27200,
,,,8.980000000000,   0.26800,
,,,9.000000000000,   0.26000,
,,,9.020000000000,   0.27600,
,,,9.040000000000,   0.27600,
,,,9.060000000000,   0.27600,
,,,9.080000000000,   0.27200,
,,,9.100000000000,   0.27200,
,,,9.120000000000,   0.26800,
,,,9.140000000000,   0.27200,
,,,9.160000000000,   0.27200,
,,,9.180000000000,  -0.26400,
,,,9.200000000000,  -0.26800,
,,,9.220000000000,  -0.26800,
,,,9.240000000000,  -0.27200,
,,,9.260000000000,  -0.26400,
,,,9.280000000000,  -0.26400,
,,,9.300000000000,  -0.26400,
,,,9.320000000000,  -0.26800,
,,,9.340000000000,  -0.26800,
,,,9.360000000000,  -0.27200,
,,,9.380000000000,  -0.26800,
,,,9.400000000000,  -0.27200,
,,,9.420000000000,  -0.26800,
,,,9.440000000000,  -0.26800,
,,,9.460000000000,  -0.27200,
,,,9.480000000000,  -0.26800,
,,,9.500000000000,  -0.26800,
,,,9.520000000000,  -0.28000,
,,,9.540000000000,  -0.26400,
,,,9.560000000000,  -0.26800,
,,,9.580000000000,  -0.26800,
,,,9.600000000000,  -0.27600,
,,,9.620000000000,  -0.27200,
,,,9.640000000000,  -0.26400,
,,,9.660000000000,  -0.27200,
,,,9.680000000000,   0.26800,
,,,9.700000000000,   0.27200,
,,,9.720000000000,   0.27200,
,,,9.740000000000,   0.26800,
,,,9.760000000000,   0.26400,
,,,9.780000000000,   0.26000,
,,,9.800000000000,   0.28000,
,,,9.820000000000,   0.27200,
,,,9.840000000000,   0.26800,
,,,9.860000000000,   0.27200,
,,,9.880000000000,   0.26800,
,,,9.900000000000,   0.26800,
,,,9.920000000000,   0.27200,
,,,9.940000000000,   0.27200,
,,,9.960000000000,   0.26400,
,,,9.980000000000,   0.26800,
,,,10.000000000000,   0.26000,
,,,10.020000000000,   0.27200,
,,,10.040000000000,   0.27200,
,,,10.060000000000,   0.27200,
,,,10.080000000000,   0.27200,
,,,10.100000000000,   0.27600,
,,,10.120000000000,   0.27200,
,,,10.140000000000,   0.27200,
,,,10.160000000000,   0.26800,
,,,10.180000000000,  -0.26000,
,,,10.200000000000,  -0.26400,
,,,10.220000000000,  -0.26400,
,,,10.240000000000,  -0.26800,
,,,10.260000000000,  -0.27200,
,,,10.280000000000,  -0.26800,
,,,10.300000000000,  -0.26400,
,,,10.320000000000,  -0.27600,
,,,10.340000000000,  -0.27200,
,,,10.360000000000,  -0.26800,
,,,10.380000000000,  -0.26800,
,,,10.400000000000,  -0.26800,
,,,10.420000000000,  -0.26800,
,,,10.440000000000,  -0.26800,
,,,10.460000000000,  -0.26400,
,,,10.480000000000,  -0.27200,
,,,10.500000000000,  -0.25600,
,,,10.520000000000,  -0.26800,
,,,10.540000000000,  -0.27600,
,,,10.560000000000,  -0.26800,
,,,10.580000000000,  -0.26800,
,,,10.600000000000,  -0.26800,
,,,10.620000000000,  -0.26400,
,,,10.640000000000,  -0.26800,
,,,10.660000000000,  -0.26800,
,,,10.680000000000,   0.26800,
,,,10.700000000000,   0.26400,
,,,10.720000000000,   0.27200,
,,,10.740000000000,   0.26000,
,,,10.760000000000,   0.26800,
,,,10.780000000000,   0.26800,
,,,10.800000000000,   0.27200,
,,,10.820000000000,   0.27200,
,,,10.840000000000,   0.27200,
,,,10.860000000000,   0.27200,
,,,10.880000000000,   0.26800,
,,,10.900000000000,   0.27200,
,,,10.920000000000,   0.27600,
,,,10.940000000000,   0.27600,
,,,10.960000000000,   0.27200,
,,,10.980000000000,   0.27600,
,,,11.000000000000,   0.27200,
,,,11.020000000000,   0.27600,
,,,11.040000000000,   0.27200,
,,,11.060000000000,   0.27200,
,,,11.080000000000,   0.26800,
,,,11.100000000000,   0.27200,
,,,11.120000000000,   0.27200,
,,,11.140000000000,   0.27600,
,,,11.160000000000,   0.26800,
,,,11.180000000000,  -0.26000,
,,,11.200000000000,  -0.25200,
,,,11.220000000000,  -0.26400,
,,,11.240000000000,  -0.26800,
,,,11.260000000000,  -0.26800,
,,,11.280000000000,  -0.26800,
,,,11.300000000000,  -0.26400,
,,,11.320000000000,  -0.27200,
,,,11.340000000000,  -0.26800,
,,,11.360000000000,  -0.26800,
,,,11.380000000000,  -0.27200,
,,,11.400000000000,  -0.26400,
,,,11.420000000000,  -0.25600,
,,,11.440000000000,  -0.26400,
,,,11.460000000000,  -0.26800,
,,,11.480000000000,  -0.27600,
,,,11.500000000000,  -0.28000,
,,,11.520000000000,  -0.26800,
,,,11.540000000000,  -0.27600,
,,,11.560000000000,  -0.26800,
,,,11.580000000000,  -0.28000,
,,,11.600000000000,  -0.26800,
,,,11.620000000000,  -0.26800,
,,,11.640000000000,  -0.27200,
,,,11.660000000000,   0.24800,
,,,11.680000000000,   0.26800,
,,,11.700000000000,   0.26400,
,,,11.720000000000,   0.27200,
,,,11.740000000000,   0.27200,
,,,11.760000000000,   0.27200,
,,,11.780000000000,   0.26800,
,,,11.800000000000,   0.26800,
,,,11.820000000000,   0.27200,
,,,11.840000000000,   0.27200,
,,,11.860000000000,   0.27600,
,,,11.880000000000,   0.27200,
,,,11.900000000000,   0.27200,
,,,11.920000000000,   0.27200,
,,,11.940000000000,   0.27600,
,,,11.960000000000,   0.27200,
,,,11.980000000000,   0.27600,
,,,12.000000000000,   0.25600,
,,,12.020000000000,   0.27200,
,,,12.040000000000,   0.27200,
,,,12.060000000000,   0.27200,
,,,12.080000000000,   0.27600,
,,,12.100000000000,   0.27600,
,,,12.120000000000,   0.27200,
,,,12.140000000000,   0.27200,
,,,12.160000000000,  -0.24800,
,,,12.180000000000,  -0.25200,
,,,12.200000000000,  -0.25600,
,,,12.220000000000,  -0.26000,
,,,12.240000000000,  -0.26800,
,,,12.260000000000,  -0.26400,
,,,12.280000000000,  -0.27200,
,,,12.300000000000,  -0.26800,
,,,12.320000000000,  -0.26400,
,,,12.340000000000,  -0.27200,
,,,12.360000000000,  -0.26800,
,,,12.380000000000,  -0.26800,
,,,12.400000000000,  -0.27200,
,,,12.420000000000,  -0.26400,
,,,12.440000000000,  -0.26800,
,,,12.460000000000,  -0.26800,
,,,12.480000000000,  -0.26400,
,,,12.500000000000,  -0.26800,
,,,12.520000000000,  -0.26400,
,,,12.540000000000,  -0.26800,
,,,12.560000000000,  -0.26800,
,,,12.580000000000,  -0.27200,
,,,12.600000000000,  -0.26800,
,,,12.620000000000,  -0.26400,
,,,12.640000000000,  -0.28400,
,,,12.660000000000,   0.26000,
,,,12.680000000000,   0.26800,
,,,12.700000000000,   0.26800,
,,,12.720000000000,   0.26400,
,,,12.740000000000,   0.26800,
,,,12.760000000000,   0.27200,
,,,12.780000000000,   0.27200,
,,,12.800000000000,   0.27200,
,,,12.820000000000,   0.27200,
,,,12.840000000000,   0.27200,
,,,12.860000000000,   0.27200,
,,,12.880000000000,   0.27600,
,,,12.900000000000,   0.27600,
,,,12.920000000000,   0.27600,
,,,12.940000000000,   0.27200,
,,,12.960000000000,   0.27200,
