data/raw/1_Hz/CNT_0,5/pre_05_1hz__5s_1/Ext/Ext_3.CSV

Record Length,2.500000e+03,,   0.000000000000,   1.44000,
Sample Interval,2.000000e-02,,   0.020000000000,   1.44000,
Trigger Point,0.000000000000e+00,,   0.040000000000,   1.36000,
,,,   0.060000000000,   1.36000,
,,,   0.080000000000,   1.36000,
,,,   0.100000000000,   1.36000,
Source,CH1,,   0.120000000000,   1.44000,
Vertical Units,V,,   0.140000000000,   1.44000,
Vertical Scale,2.000000e+00,,   0.160000000000,   1.36000,
Vertical Offset,3.120000e+00,,   0.180000000000,   1.36000,
Horizontal Units,s,,   0.200000000000,  -1.84000,
Horizontal Scale,5.000000e+00,,   0.220000000000,  -1.68000,
Pt Fmt,Y,,   0.240000000000,  -1.60000,
Yzero,0.000000e+00,,   0.260000000000,  -1.60000,
Probe Atten,1.000000e+00,,   0.280000000000,  -1.44000,
Model Number,TDS1012C-EDU,,   0.300000000000,  -1.44000,
Serial Number,C010951,,   0.320000000000,  -1.44000,
Firmware Version,FV:v25.04,,   0.340000000000,  -1.44000,
,,,0.360000000000,  -1.36000,
,,,0.380000000000,  -1.36000,
,,,0.400000000000,  -1.36000,
,,,0.420000000000,  -1.28000,
,,,0.440000000000,  -1.36000,
,,,0.460000000000,  -1.28000,
,,,0.480000000000,  -1.28000,
,,,0.500000000000,  -1.28000,
,,,0.520000000000,  -1.28000,
,,,0.540000000000,  -1.28000,
,,,0.560000000000,  -1.28000,
,,,0.580000000000,  -1.20000,
,,,0.600000000000,  -1.20000,
,,,0.620000000000,  -1.28000,
,,,0.640000000000,  -1.20000,
,,,0.660000000000,  -1.20000,
,,,0.680000000000,   2.56000,
,,,0.700000000000,   2.00000,
,,,0.720000000000,   1.76000,
,,,0.740000000000,   1.68000,
,,,0.760000000000,   1.60000,
,,,0.780000000000,   1.60000,
,,,0.800000000000,   1.60000,
,,,0.820000000000,   1.52000,
,,,0.840000000000,   1.52000,
,,,0.860000000000,   1.44000,
,,,0.880000000000,   1.52000,
,,,0.900000000000,   1.52000,
,,,0.920000000000,   1.44000,
,,,0.940000000000,   1.44000,
,,,0.960000000000,   1.44000,
,,,0.980000000000,   1.44000,
,,,1.000000000000,   1.44000,
,,,1.020000000000,   1.36000,
,,,1.040000000000,   1.36000,
,,,1.060000000000,   1.36000,
,,,1.080000000000,   1.36000,
,,,1.100000000000,   1.44000,
,,,1.120000000000,   1.44000,
,,,1.140000000000,   1.36000,
,,,1.160000000000,   1.36000,
,,,1.180000000000,  -2.32000,
,,,1.200000000000,  -1.76000,
,,,1.220000000000,  -1.68000,
,,,1.240000000000,  -1.60000,
,,,1.260000000000,  -1.52000,
,,,1.280000000000,  -1.44000,
,,,1.300000000000,  -1.44000,
,,,1.320000000000,  -1.44000,
,,,1.340000000000,  -1.36000,
,,,1.360000000000,  -1.36000,
,,,1.380000000000,  -1.28000,
,,,1.400000000000,  -1.28000,
,,,1.420000000000,  -1.28000,
,,,1.440000000000,  -1.36000,
,,,1.460000000000,  -1.28000,
,,,1.480000000000,  -1.28000,
,,,1.500000000000,  -1.28000,
,,,1.520000000000,  -1.28000,
,,,1.540000000000,  -1.28000,
,,,1.560000000000,  -1.28000,
,,,1.580000000000,  -1.28000,
,,,1.600000000000,  -1.20000,
,,,1.620000000000,  -1.20000,
,,,1.640000000000,  -1.28000,
,,,1.660000000000,  -1.28000,
,,,1.680000000000,   2.24000,
,,,1.700000000000,   1.92000,
,,,1.720000000000,   1.76000,
,,,1.740000000000,   1.68000,
,,,1.760000000000,   1.68000,
,,,1.780000000000,   1.60000,
,,,1.800000000000,   1.52000,
,,,1.820000000000,   1.52000,
,,,1.840000000000,   1.52000,
,,,1.860000000000,   1.52000,
,,,1.880000000000,   1.44000,
,,,1.900000000000,   1.52000,
,,,1.920000000000,   1.44000,
,,,1.940000000000,   1.44000,
,,,1.960000000000,   1.44000,
,,,1.980000000000,   1.44000,
,,,2.000000000000,   1.44000,
,,,2.020000000000,   1.44000,
,,,2.040000000000,   1.44000,
,,,2.060000000000,   1.36000,
,,,2.080000000000,   1.36000,
,,,2.100000000000,   1.44000,
,,,2.120000000000,   1.36000,
,,,2.140000000000,   1.36000,
,,,2.160000000000,   1.36000,
,,,2.180000000000,  -2.08000,
,,,2.200000000000,  -1.76000,
,,,2.220000000000,  -1.68000,
,,,2.240000000000,  -1.60000,
,,,2.260000000000,  -1.60000,
,,,2.280000000000,  -1.44000,
,,,2.300000000000,  -1.44000,
,,,2.320000000000,  -1.36000,
,,,2.340000000000,  -1.36000,
,,,2.360000000000,  -1.36000,
,,,2.380000000000,  -1.36000,
,,,2.400000000000,  -1.28000,
,,,2.420000000000,  -1.36000,
,,,2.440000000000,  -1.36000,
,,,2.460000000000,  -1.28000,
,,,2.480000000000,  -1.28000,
,,,2.500000000000,  -1.28000,
,,,2.520000000000,  -1.28000,
,,,2.540000000000,  -1.28000,
,,,2.560000000000,  -1.28000,
,,,2.580000000000,  -1.20000,
,,,2.600000000000,  -1.20000,
,,,2.620000000000,  -1.28000,
,,,2.640000000000,  -1.28000,
,,,2.660000000000,  -1.20000,
,,,2.680000000000,   2.08000,
,,,2.700000000000,   1.76000,
,,,2.720000000000,   1.68000,
,,,2.740000000000,   1.68000,
,,,2.760000000000,   1.60000,
,,,2.780000000000,   1.60000,
,,,2.800000000000,   1.60000,
,,,2.820000000000,   1.52000,
,,,2.840000000000,   1.52000,
,,,2.860000000000,   1.52000,
,,,2.880000000000,   1.52000,
,,,2.900000000000,   1.52000,
,,,2.920000000000,   1.52000,
,,,2.940000000000,   1.44000,
,,,2.960000000000,   1.44000,
,,,2.980000000000,   1.36000,
,,,3.000000000000,   1.36000,
,,,3.020000000000,   1.44000,
,,,3.040000000000,   1.44000,
,,,3.060000000000,   1.36000,
,,,3.080000000000,   1.44000,
,,,3.100000000000,   1.36000,
,,,3.120000000000,   1.44000,
,,,3.140000000000,   1.36000,
,,,3.160000000000,   1.36000,
,,,3.180000000000,  -2.00000,
,,,3.200000000000,  -1.68000,
,,,3.220000000000,  -1.60000,
,,,3.240000000000,  -1.52000,
,,,3.260000000000,  -1.44000,
,,,3.280000000000,  -1.44000,
,,,3.300000000000,  -1.44000,
,,,3.320000000000,  -1.36000,
,,,3.340000000000,  -1.36000,
,,,3.360000000000,  -1.52000,
,,,3.380000000000,  -1.36000,
,,,3.400000000000,  -1.28000,
,,,3.420000000000,  -1.28000,
,,,3.440000000000,  -1.28000,
,,,3.460000000000,  -1.28000,
,,,3.480000000000,  -1.28000,
,,,3.500000000000,  -1.28000,
,,,3.520000000000,  -1.28000,
,,,3.540000000000,  -1.28000,
,,,3.560000000000,  -1.20000,
,,,3.580000000000,  -1.28000,
,,,3.600000000000,  -1.28000,
,,,3.620000000000,  -1.28000,
,,,3.640000000000,  -1.28000,
,,,3.660000000000,  -1.28000,
,,,3.680000000000,   2.00000,
,,,3.700000000000,   1.76000,
,,,3.720000000000,   1.68000,
,,,3.740000000000,   1.60000,
,,,3.760000000000,   1.52000,
,,,3.780000000000,   1.52000,
,,,3.800000000000,   1.52000,
,,,3.820000000000,   1.52000,
,,,3.840000000000,   1.52000,
,,,3.860000000000,   1.36000,
,,,3.880000000000,   1.52000,
,,,3.900000000000,   1.60000,
,,,3.920000000000,   1.44000,
,,,3.940000000000,   1.44000,
,,,3.960000000000,   1.36000,
,,,3.980000000000,   1.44000,
,,,4.000000000000,   1.44000,
,,,4.020000000000,   1.44000,
,,,4.040000000000,   1.36000,
,,,4.060000000000,   1.44000,
,,,4.080000000000,   1.36000,
,,,4.100000000000,   1.44000,
,,,4.120000000000,   1.36000,
,,,4.140000000000,   1.36000,
,,,4.160000000000,   1.36000,
,,,4.180000000000,  -1.76000,
,,,4.200000000000,  -1.68000,
,,,4.220000000000,  -1.60000,
,,,4.240000000000,  -1.52000,
,,,4.260000000000,  -1.52000,
,,,4.280000000000,  -1.44000,
,,,4.300000000000,  -1.44000,
,,,4.320000000000,  -1.44000,
,,,4.340000000000,  -1.44000,
,,,4.360000000000,  -1.28000,
,,,4.380000000000,  -1.28000,
,,,4.400000000000,  -1.36000,
,,,4.420000000000,  -1.28000,
,,,4.440000000000,  -1.28000,
,,,4.460000000000,  -1.36000,
,,,4.480000000000,  -1.28000,
,,,4.500000000000,  -1.28000,
,,,4.520000000000,  -1.20000,
,,,4.540000000000,  -1.28000,
,,,4.560000000000,  -1.28000,
,,,4.580000000000,  -1.28000,
,,,4.600000000000,  -1.20000,
,,,4.620000000000,  -1.28000,
,,,4.640000000000,  -1.28000,
,,,4.660000000000,   3.04000,
,,,4.680000000000,   2.00000,
,,,4.700000000000,   1.76000,
,,,4.720000000000,   1.68000,
,,,4.740000000000,   1.68000,
,,,4.760000000000,   1.60000,
,,,4.780000000000,   1.60000,
,,,4.800000000000,   1.60000,
,,,4.820000000000,   1.44000,
,,,4.840000000000,   1.52000,
,,,4.860000000000,   1.52000,
,,,4.880000000000,   1.36000,
,,,4.900000000000,   1.52000,
,,,4.920000000000,   1.44000,
,,,4.940000000000,   1.36000,
,,,4.960000000000,   1.36000,
,,,4.980000000000,   1.36000,
,,,5.000000000000,   1.44000,
,,,5.020000000000,   1.36000,
,,,5.040000000000,   1.36000,
,,,5.060000000000,   1.36000,
,,,5.080000000000,   1.36000,
,,,5.100000000000,   1.36000,
,,,5.120000000000,   1.44000,
,,,5.140000000000,   1.36000,
,,,5.160000000000,  -2.48000,
,,,5.180000000000,  -1.84000,
,,,5.200000000000,  -1.68000,
,,,5.220000000000,  -1.52000,
,,,5.240000000000,  -1.52000,
,,,5.260000000000,  -1.52000,
,,,5.280000000000,  -1.44000,
,,,5.300000000000,  -1.36000,
,,,5.320000000000,  -1.36000,
,,,5.340000000000,  -1.44000,
,,,5.360000000000,  -1.36000,
,,,5.380000000000,  -1.36000,
,,,5.400000000000,  -1.28000,
,,,5.420000000000,  -1.36000,
,,,5.440000000000,  -1.28000,
,,,5.460000000000,  -1.28000,
,,,5.480000000000,  -1.28000,
,,,5.500000000000,  -1.28000,
,,,5.520000000000,  -1.28000,
,,,5.540000000000,  -1.20000,
,,,5.560000000000,  -1.28000,
,,,5.580000000000,  -1.20000,
,,,5.600000000000,  -1.20000,
,,,5.620000000000,  -1.20000,
,,,5.640000000000,  -1.28000,
,,,5.660000000000,   2.32000,
,,,5.680000000000,   1.92000,
,,,5.700000000000,   1.68000,
,,,5.720000000000,   1.68000,
,,,5.740000000000,   1.60000,
,,,5.760000000000,   1.60000,
,,,5.780000000000,   1.52000,
,,,5.800000000000,   1.52000,
,,,5.820000000000,   1.52000,
,,,5.840000000000,   1.44000,
,,,5.860000000000,   1.52000,
,,,5.880000000000,   1.44000,
,,,5.900000000000,   1.44000,
,,,5.920000000000,   1.44000,
,,,5.940000000000,   1.44000,
,,,5.960000000000,   1.52000,
,,,5.980000000000,   1.44000,
,,,6.000000000000,   1.44000,
,,,6.020000000000,   1.44000,
,,,6.040000000000,   1.44000,
,,,6.060000000000,   1.44000,
,,,6.080000000000,   1.36000,
,,,6.100000000000,   1.36000,
,,,6.120000000000,   1.36000,
,,,6.140000000000,   1.36000,
,,,6.160000000000,  -2.16000,
,,,6.180000000000,  -1.76000,
,,,6.200000000000,  -1.60000,
,,,6.220000000000,  -1.60000,
,,,6.240000000000,  -1.52000,
,,,6.260000000000,  -1.44000,
,,,6.280000000000,  -1.44000,
,,,6.300000000000,  -1.36000,
,,,6.320000000000,  -1.36000,
,,,6.340000000000,  -1.44000,
,,,6.360000000000,  -1.36000,
,,,6.380000000000,  -1.36000,
,,,6.400000000000,  -1.28000,
,,,6.420000000000,  -1.28000,
,,,6.440000000000,  -1.28000,
,,,6.460000000000,  -1.28000,
,,,6.480000000000,  -1.28000,
,,,6.500000000000,  -1.28000,
,,,6.520000000000,  -1.28000,
,,,6.540000000000,  -1.28000,
,,,6.560000000000,  -1.28000,
,,,6.580000000000,  -1.28000,
,,,6.600000000000,  -1.28000,
,,,6.620000000000,  -1.20000,
,,,6.640000000000,  -1.28000,
,,,6.660000000000,   2.08000,
,,,6.680000000000,   1.92000,
,,,6.700000000000,   1.76000,
,,,6.720000000000,   1.68000,
,,,6.740000000000,   1.60000,
,,,6.760000000000,   1.52000,
,,,6.780000000000,   1.52000,
,,,6.800000000000,   1.52000,
,,,6.820000000000,   1.52000,
,,,6.840000000000,   1.44000,
,,,6.860000000000,   1.44000,
,,,6.880000000000,   1.36000,
,,,6.900000000000,   1.52000,
,,,6.920000000000,   1.52000,
,,,6.940000000000,   1.44000,
,,,6.960000000000,   1.36000,
,,,6.980000000000,   1.36000,
,,,7.000000000000,   1.44000,
,,,7.020000000000,   1.36000,
,,,7.040000000000,   1.44000,
,,,7.060000000000,   1.44000,
,,,7.080000000000,   1.36000,
,,,7.100000000000,   1.36000,
,,,7.120000000000,   1.44000,
,,,7.140000000000,   1.36000,
,,,7.160000000000,  -2.08000,
,,,7.180000000000,  -1.76000,
,,,7.200000000000,  -1.60000,
,,,7.220000000000,  -1.52000,
,,,7.240000000000,  -1.52000,
,,,7.260000000000,  -1.52000,
,,,7.280000000000,  -1.44000,
,,,7.300000000000,  -1.36000,
,,,7.320000000000,  -1.44000,
,,,7.340000000000,  -1.36000,
,,,7.360000000000,  -1.36000,
,,,7.380000000000,  -1.36000,
,,,7.400000000000,  -1.28000,
,,,7.420000000000,  -1.28000,
,,,7.440000000000,  -1.28000,
,,,7.460000000000,  -1.28000,
,,,7.480000000000,  -1.28000,
,,,7.500000000000,  -1.28000,
,,,7.520000000000,  -1.36000,
,,,7.540000000000,  -1.20000,
,,,7.560000000000,  -1.20000,
,,,7.580000000000,  -1.20000,
,,,7.600000000000,  -1.20000,
,,,7.620000000000,  -1.20000,
,,,7.640000000000,  -1.20000,
,,,7.660000000000,   2.08000,
,,,7.680000000000,   1.76000,
,,,7.700000000000,   1.76000,
,,,7.720000000000,   1.68000,
,,,7.740000000000,   1.60000,
,,,7.760000000000,   1.60000,
,,,7.780000000000,   1.52000,
,,,7.800000000000,   1.52000,
,,,7.820000000000,   1.52000,
,,,7.840000000000,   1.52000,
,,,7.860000000000,   1.44000,
,,,7.880000000000,   1.36000,
,,,7.900000000000,   1.52000,
,,,7.920000000000,   1.44000,
,,,7.940000000000,   1.44000,
,,,7.960000000000,   1.36000,
,,,7.980000000000,   1.36000,
,,,8.000000000000,   1.44000,
,,,8.020000000000,   1.44000,
,,,8.040000000000,   1.44000,
,,,8.060000000000,   1.44000,
,,,8.080000000000,   1.36000,
,,,8.100000000000,   1.36000,
,,,8.120000000000,   1.36000,
,,,8.140000000000,   1.36000,
,,,8.160000000000,  -1.92000,
,,,8.180000000000,  -1.76000,
,,,8.200000000000,  -1.60000,
,,,8.220000000000,  -1.52000,
,,,8.240000000000,  -1.52000,
,,,8.260000000000,  -1.44000,
,,,8.280000000000,  -1.44000,
,,,8.300000000000,  -1.44000,
,,,8.320000000000,  -1.44000,
,,,8.340000000000,  -1.36000,
,,,8.360000000000,  -1.36000,
,,,8.380000000000,  -1.28000,
,,,8.400000000000,  -1.36000,
,,,8.420000000000,  -1.36000,
,,,8.440000000000,  -1.20000,
,,,8.460000000000,  -1.28000,
,,,8.480000000000,  -1.28000,
,,,8.500000000000,  -1.20000,
,,,8.520000000000,  -1.28000,
,,,8.540000000000,  -1.28000,
,,,8.560000000000,  -1.28000,
,,,8.580000000000,  -1.28000,
,,,8.600000000000,  -1.28000,
,,,8.620000000000,  -1.20000,
,,,8.640000000000,  -1.28000,
,,,8.660000000000,   1.92000,
,,,8.680000000000,   1.76000,
,,,8.700000000000,   1.68000,
,,,8.720000000000,   1.68000,
,,,8.740000000000,   1.60000,
,,,8.760000000000,   1.52000,
,,,8.780000000000,   1.52000,
,,,8.800000000000,   1.52000,
,,,8.820000000000,   1.52000,
,,,8.840000000000,   1.52000,
,,,8.860000000000,   1.44000,
,,,8.880000000000,   1.52000,
,,,8.900000000000,   1.44000,
,,,8.920000000000,   1.44000,
,,,8.940000000000,   1.44000,
,,,8.960000000000,   1.36000,
,,,8.980000000000,   1.36000,
,,,9.000000000000,   1.44000,
,,,9.020000000000,   1.44000,
,,,9.040000000000,   1.44000,
,,,9.060000000000,   1.36000,
,,,9.080000000000,   1.36000,
,,,9.100000000000,   1.36000,
,,,9.120000000000,   1.36000,
,,,9.140000000000,  -2.80000,
,,,9.160000000000,  -1.84000,
,,,9.180000000000,  -1.68000,
,,,9.200000000000,  -1.60000,
,,,9.220000000000,  -1.52000,
,,,9.240000000000,  -1.44000,
,,,9.260000000000,  -1.44000,
,,,9.280000000000,  -1.44000,
,,,9.300000000000,  -1.36000,
,,,9.320000000000,  -1.36000,
,,,9.340000000000,  -1.36000,
,,,9.360000000000,  -1.36000,
,,,9.380000000000,  -1.36000,
,,,9.400000000000,  -1.28000,
,,,9.420000000000,  -1.28000,
,,,9.440000000000,  -1.28000,
,,,9.460000000000,  -1.36000,
,,,9.480000000000,  -1.28000,
,,,9.500000000000,  -1.28000,
,,,9.520000000000,  -1.28000,
,,,9.540000000000,  -1.28000,
,,,9.560000000000,  -1.20000,
,,,9.580000000000,  -1.28000,
,,,9.600000000000,  -1.20000,
,,,9.620000000000,  -1.28000,
,,,9.640000000000,   2.40000,
,,,9.660000000000,   1.92000,
,,,9.680000000000,   1.76000,
,,,9.700000000000,   1.68000,
,,,9.720000000000,   1.60000,
,,,9.740000000000,   1.60000,
,,,9.760000000000,   1.60000,
,,,9.780000000000,   1.52000,
,,,9.800000000000,   1.52000,
,,,9.820000000000,   1.52000,
,,,9.840000000000,   1.52000,
,,,9.860000000000,   1.52000,
,,,9.880000000000,   1.52000,
,,,9.900000000000,   1.52000,
,,,9.920000000000,   1.44000,
,,,9.940000000000,   1.44000,
,,,9.960000000000,   1.36000,
,,,9.980000000000,   1.36000,
,,,10.000000000000,   1.44000,
,,,10.020000000000,   1.36000,
,,,10.040000000000,   1.36000,
,,,10.060000000000,   1.36000,
,,,10.080000000000,   1.36000,
,,,10.100000000000,   1.36000,
,,,10.120000000000,   1.36000,
,,,10.140000000000,  -2.24000,
,,,10.160000000000,  -1.76000,
,,,10.180000000000,  -1.68000,
,,,10.200000000000,  -1.60000,
,,,10.220000000000,  -1.52000,
,,,10.240000000000,  -1.52000,
,,,10.260000000000,  -1.44000,
,,,10.280000000000,  -1.44000,
,,,10.300000000000,  -1.44000,
,,,10.320000000000,  -1.36000,
,,,10.340000000000,  -1.44000,
,,,10.360000000000,  -1.36000,
,,,10.380000000000,  -1.36000,
,,,10.400000000000,  -1.36000,
,,,10.420000000000,  -1.28000,
,,,10.440000000000,  -1.28000,
,,,10.460000000000,  -1.36000,
,,,10.480000000000,  -1.36000,
,,,10.500000000000,  -1.28000,
,,,10.520000000000,  -1.28000,
,,,10.540000000000,  -1.28000,
,,,10.560000000000,  -1.28000,
,,,10.580000000000,  -1.28000,
,,,10.600000000000,  -1.20000,
,,,10.620000000000,  -1.20000,
,,,10.640000000000,   2.16000,
,,,10.660000000000,   1.92000,
,,,10.680000000000,   1.68000,
,,,10.700000000000,   1.68000,
,,,10.720000000000,   1.68000,
,,,10.740000000000,   1.60000,
,,,10.760000000000,   1.60000,
,,,10.780000000000,   1.52000,
,,,10.800000000000,   1.52000,
,,,10.820000000000,   1.52000,
,,,10.840000000000,   1.52000,
,,,10.860000000000,   1.44000,
,,,10.880000000000,   1.44000,
,,,10.900000000000,   1.44000,
,,,10.920000000000,   1.36000,
,,,10.940000000000,   1.36000,
,,,10.960000000000,   1.44000,
,,,10.980000000000,   1.36000,
,,,11.000000000000,   1.44000,
,,,11.020000000000,   1.44000,
,,,11.040000000000,   1.36000,
,,,11.060000000000,   1.36000,
,,,11.080000000000,   1.36000,
,,,11.100000000000,   1.36000,
,,,11.120000000000,   1.36000,
,,,11.140000000000,  -2.00000,
,,,11.160000000000,  -1.68000,
,,,11.180000000000,  -1.60000,
,,,11.200000000000,  -1.60000,
,,,11.220000000000,  -1.44000,
,,,11.240000000000,  -1.44000,
,,,11.260000000000,  -1.44000,
,,,11.280000000000,  -1.44000,
,,,11.300000000000,  -1.44000,
,,,11.320000000000,  -1.36000,
,,,11.340000000000,  -1.28000,
,,,11.360000000000,  -1.28000,
,,,11.380000000000,  -1.28000,
,,,11.400000000000,  -1.36000,
,,,11.420000000000,  -1.28000,
,,,11.440000000000,  -1.28000,
,,,11.460000000000,  -1.28000,
,,,11.480000000000,  -1.28000,
,,,11.500000000000,  -1.28000,
,,,11.520000000000,  -1.28000,
,,,11.540000000000,  -1.20000,
,,,11.560000000000,  -1.28000,
,,,11.580000000000,  -1.28000,
,,,11.600000000000,  -1.28000,
,,,11.620000000000,  -1.12000,
,,,11.640000000000,   2.00000,
,,,11.660000000000,   1.84000,
,,,11.680000000000,   1.76000,
,,,11.700000000000,   1.68000,
,,,11.720000000000,   1.68000,
,,,11.740000000000,   1.52000,
,,,11.760000000000,   1.52000,
,,,11.780000000000,   1.52000,
,,,11.800000000000,   1.52000,
,,,11.820000000000,   1.52000,
,,,11.840000000000,   1.52000,
,,,11.860000000000,   1.52000,
,,,11.880000000000,   1.44000,
,,,11.900000000000,   1.36000,
,,,11.920000000000,   1.44000,
,,,11.940000000000,   1.44000,
,,,11.960000000000,   1.44000,
,,,11.980000000000,   1.36000,
,,,12.000000000000,   1.44000,
,,,12.020000000000,   1.36000,
,,,12.040000000000,   1.36000,
,,,12.060000000000,   1.36000,
,,,12.080000000000,   1.36000,
,,,12.100000000000,   1.36000,
,,,12.120000000000,   1.36000,
,,,12.140000000000,  -1.92000,
,,,12.160000000000,  -1.68000,
,,,12.180000000000,  -1.68000,
,,,12.200000000000,  -1.52000,
,,,12.220000000000,  -1.52000,
,,,12.240000000000,  -1.44000,
,,,12.260000000000,  -1.36000,
,,,12.280000000000,  -1.44000,
,,,12.300000000000,  -1.44000,
,,,12.320000000000,  -1.44000,
,,,12.340000000000,  -1.36000,
,,,12.360000000000,  -1.28000,
,,,12.380000000000,  -1.28000,
,,,12.400000000000,  -1.28000,
,,,12.420000000000,  -1.28000,
,,,12.440000000000,  -1.28000,
,,,12.460000000000,  -1.28000,
,,,12.480000000000,  -1.36000,
,,,12.500000000000,  -1.28000,
,,,12.520000000000,  -1.28000,
,,,12.540000000000,  -1.28000,
,,,12.560000000000,  -1.28000,
,,,12.580000000000,  -1.28000,
,,,12.600000000000,  -1.28000,
,,,12.620000000000,  -1.20000,
,,,12.640000000000,   2.00000,
,,,12.660000000000,   1.76000,
,,,12.680000000000,   1.68000,
,,,12.700000000000,   1.68000,
,,,12.720000000000,   1.52000,
,,,12.740000000000,   1.60000,
,,,12.760000000000,   1.52000,
,,,12.780000000000,   1.52000,
,,,12.800000000000,   1.44000,
,,,12.820000000000,   1.52000,
,,,12.840000000000,   1.52000,
,,,12.860000000000,   1.44000,
,,,12.880000000000,   1.44000,
,,,12.900000000000,   1.36000,
,,,12.920000000000,   1.44000,
,,,12.940000000000,   1.44000,
,,,12.960000000000,   1.44000,
